id,originally_associated_contact_id,firstname,lastname,agent_originating,agent_firstname,agent_lastname,hubspot_owner_id,hs_owner_firstname,hs_owner_lastname,policy_number,commission_id,carrier,plan_name,status,gi___not_commissionable,plan_type,date_actual_submission,date_requested_submission,date_effective,date_cancel_notification,date_cancel_actual,notes_misc_cancel,first_date_effective,active_policy,residual,grey
3173125481,7529951,Kimberly,Aycox,81158745,Inactive,Agent,81158745,Inactive,Agent,AHC6564814,AHC6564814,AETNA,G,500,,msp,2021-10-25,,2022-03-01,2021-11-17,2021-11-17,,2022-03-01,False,False,
,,,,,,,,,,,,,,,,,,,,,,,,,,
3173259060,5473451,Robert,Becotte,81158745,Inactive,Agent,81158745,Inactive,Agent,3179311919,A03361475,AARP,N,500,,msp,2021-09-13,,2021-11-01,2021-12-08,2021-10-31,,2021-11-01,False,False,
,,,,,,,,,,,,,,,,,,,,,,,,,,
3173116512,6690651,Phyllis,Black,81158745,Inactive,Agent,81158745,Inactive,Agent,3351148675,335114867,AARP,G,200,,msp,2021-10-12,,2021-12-01,,,,2021-12-01,True,False,
,,,,,,,,,,,,,,,,,,,,,,,,,,
3173184835,6368551,Cindy,Boling,81158745,Inactive,Agent,81158745,Inactive,Agent,3493760072,A03370254,AARP,G,200,,msp,2021-09-28,,2021-10-01,,,,2021-10-01,True,True,
,,,,,,,,,,,,,,,,,,,,,,,,,,
3173141920,4833101,Kathy,Branham,81158745,Inactive,Agent,81158745,Inactive,Agent,AHC6541149,AHC6541149,AETNA,G,200,,msp,2021-08-19,,2021-10-01,,,,2021-10-01,True,True,
,,,,,,,,,,,,,,,,,,,,,,,,,,
3173308539,3486451,Martha,Cabrera,81158745,Inactive,Agent,81158745,Inactive,Agent,3289663043,A03304606,AARP,G,200,,msp,2021-07-20,2021-07-20,2021-09-01,,,,2021-09-01,True,True,
,,,,,,,,,,,,,,,,,,,,,,,,,,
3173308674,3461251,Darla,Cestone,81158745,Inactive,Agent,81158745,Inactive,Agent,3372285035,A03298988,AARP,G,200,,msp,2021-07-14,,2021-09-01,,,,2021-09-01,True,True,
,,,,,,,,,,,,,,,,,,,,,,,,,,
3173324187,3878201,Linda,Christensen,81158745,Inactive,Agent,81158745,Inactive,Agent,AHL6300345,AHL6300345,AETNA,G,500,,msp,2021-12-07,,2022-05-01,2022-06-21,2022-05-31,,2022-05-01,False,False,
,,,,,,,,,,,,,,,,,,,,,,,,,,
3173150135,6993201,Robert,Coiteux,81158745,Inactive,Agent,81158745,Inactive,Agent,3494500030,A03378574.    349450003,AARP,G,200,,msp,2021-10-12,,2022-03-01,,,,2022-03-01,True,False,
,,,,,,,,,,,,,,,,,,,,,,,,,,
3173163811,3183251,Pamela,Cremeans,81158745,Inactive,Agent,81158745,Inactive,Agent,3491759084,A03350682,AARP,G,200,,msp,2021-10-25,,2021-11-01,,2021-11-01,,2021-11-01,True,False,
,,,,,,,,,,,,,,,,,,,,,,,,,,
3173116977,6842151,Tim,Devine,81158745,Inactive,Agent,81158745,Inactive,Agent,3494308178,A03376878,AARP,G,200,,msp,2021-10-08,,2022-01-01,,,,2022-01-01,True,False,
,,,,,,,,,,,,,,,,,,,,,,,,,,
3173259020,5402101,Pamela,Evans,81158745,Inactive,Agent,81158745,Inactive,Agent,3156837977,A03360387,AARP,G,500,,msp,2021-09-09,,2022-01-01,2022-01-01,2022-01-01,,2022-01-01,False,False,
,,,,,,,,,,,,,,,,,,,,,,,,,,
3173253939,4333751,Grace,Ford,81158745,Inactive,Agent,81158745,Inactive,Agent,3490890484,A03319630,AARP,G,200,,msp,2021-08-09,2021-12-01,2021-12-01,,,,2021-12-01,True,False,
,,,,,,,,,,,,,,,,,,,,,,,,,,
3173228957,4806301,Diane,Fratus,81158745,Inactive,Agent,81158745,Inactive,Agent,631W09536,631W09536,ANTHEM,N,500,,msp,2021-08-19,,2022-01-01,2022-05-15,2021-12-31,,2022-01-01,False,False,
,,,,,,,,,,,,,,,,,,,,,,,,,,
3173125518,7589551,Randall,French,81158745,Inactive,Agent,81158745,Inactive,Agent,AHC6565456,AHC6565456,AETNA,G,200,,msp,2021-10-26,,2021-11-01,,,,2021-11-01,True,False,
,,,,,,,,,,,,,,,,,,,,,,,,,,
3173273194,8583801,Maria,Garcia,81158745,Inactive,Agent,81158745,Inactive,Agent,3150168825,,AARP,G,500,,msp,2021-11-16,2021-11-16,2021-12-01,2021-11-30,2021-11-30,,2021-12-01,False,False,False
,,,,,,,,,,,,,,,,,,,,,,,,,,
3173117292,8625101,Samuel,Garcia,81158745,Inactive,Agent,81158745,Inactive,Agent,3150168825,A03419405,AARP,G,200,,msp,2021-11-16,,2021-12-01,,,,2021-12-01,True,False,
,,,,,,,,,,,,,,,,,,,,,,,,,,
3173150131,7043551,Niki,Grobe,81158745,Inactive,Agent,81158745,Inactive,Agent,AHC6561606,AHC6561606,AETNA,G,500,,msp,2021-10-19,,2022-01-01,2021-10-28,2021-10-28,,2022-01-01,False,False,
,,,,,,,,,,,,,,,,,,,,,,,,,,
3170712141,5326251,Gregory,Haberl,81158745,Inactive,Agent,81158745,Inactive,Agent,AHL6293391,AHL6293391,AETNA,G,475,,msp,2021-09-08,,2021-11-01,,,,2021-11-01,False,False,
,,,,,,,,,,,,,,,,,,,,,,,,,,
3173273165,8489151,Janet,Hall,81158745,Inactive,Agent,81158745,Inactive,Agent,AHC6249178,AHC6249178,AETNA,G,200,,msp,2019-11-07,,2020-01-01,,,,2020-01-01,True,True,
,,,,,,,,,,,,,,,,,,,,,,,,,,
3173142036,4870751,Pamela,Haus,81158745,Inactive,Agent,81158745,Inactive,Agent,AHC6541062,AHC6541062,AETNA,G,200,,msp,2021-08-19,,2021-09-01,,,,2021-09-01,True,True,
,,,,,,,,,,,,,,,,,,,,,,,,,,
3173259101,7342801,William,Holt,81158745,Inactive,Agent,81158745,Inactive,Agent,AHC6562166,AHC6562166,AETNA,G,200,,msp,2021-10-20,,2021-11-01,,,,2021-11-01,True,False,
,,,,,,,,,,,,,,,,,,,,,,,,,,
3173185031,6135751,Lisa,Huff,81158745,Inactive,Agent,81158745,Inactive,Agent,3170400604,A03365719,AARP,G,200,,msp,2021-09-21,,2021-10-01,,,,2021-10-01,True,True,
,,,,,,,,,,,,,,,,,,,,,,,,,,
3173216563,3296801,Randall,Joyner,81158745,Inactive,Agent,81158745,Inactive,Agent,3165102033,A03293706,AARP,G,200,,msp,2021-07-08,,2021-09-01,,2021-08-02,,2021-09-01,True,True,
,,,,,,,,,,,,,,,,,,,,,,,,,,
3173286206,3601201,Linda,Joyner,81158745,Inactive,Agent,81158745,Inactive,Agent,3165102033,A03300880,AARP,G,200,,msp,2021-07-15,,2022-01-01,,,,2022-01-01,True,False,
,,,,,,,,,,,,,,,,,,,,,,,,,,
3173324213,3847151,Susan,K. Johnson,81158745,Inactive,Agent,81158745,Inactive,Agent,3492568559,349256855 / A03238927 / A03359758,AARP,G,200,,msp,2021-09-08,,2021-10-01,,,,2021-10-01,True,True,
,,,,,,,,,,,,,,,,,,,,,,,,,,
3173057413,7144751,Margaret,Kelley- Johnson,81158745,Inactive,Agent,81158745,Inactive,Agent,3270857489,A03379716,AARP,G,200,,msp,2021-10-13,,2022-01-01,,,,2022-01-01,True,False,
,,,,,,,,,,,,,,,,,,,,,,,,,,
3173286493,5739151,Elizabeth,Kuberski,81158745,Inactive,Agent,81158745,Inactive,Agent,AHC6547245,AHC6547245,AETNA,N,200,,msp,2021-09-09,,2021-10-01,,,,2021-10-01,True,True,
,,,,,,,,,,,,,,,,,,,,,,,,,,
3173286412,3581451,Peggy,Marshall,81158745,Inactive,Agent,81158745,Inactive,Agent,3489787253,A03306247,AARP,G,200,,msp,2021-07-22,,2021-11-01,,,,2021-11-01,True,False,
,,,,,,,,,,,,,,,,,,,,,,,,,,
3173216403,8905901,William,Martin,81158745,Inactive,Agent,81158745,Inactive,Agent,CLI6768526,CLI6768526,AETNA,G,500,,msp,,,2022-01-01,2022-04-18,2022-04-18,No cancellation reason given on original contact record (flat file),2022-01-01,False,False,
,,,,,,,,,,,,,,,,,,,,,,,,,,
3173273154,8580901,Michael Dewey,McGuirk,81158745,Inactive,Agent,81158745,Inactive,Agent,3479135166,347913516,AARP,G,200,,msp,2021-11-17,2021-11-17,2022-01-01,,,,2022-01-01,True,False,
,,,,,,,,,,,,,,,,,,,,,,,,,,
3173184815,6578651,Pamela,Meeks,81158745,Inactive,Agent,81158745,Inactive,Agent,AHC6567880,AHC6567880,AETNA,G,200,,msp,2021-10-29,,2021-12-01,,,,2021-12-01,True,False,
,,,,,,,,,,,,,,,,,,,,,,,,,,
3173141938,4859301,William,Mitchell,81158745,Inactive,Agent,81158745,Inactive,Agent,3493373413,A03365788,AARP,G,200,,msp,2021-09-21,,2021-11-01,,,,2021-11-01,True,False,
,,,,,,,,,,,,,,,,,,,,,,,,,,
3173308544,3390151,Debra,Moore,81158745,Inactive,Agent,81158745,Inactive,Agent,3239864568,A03321959,AARP,G,200,,msp,2021-08-12,,2021-09-01,,,,2021-09-01,True,True,
,,,,,,,,,,,,,,,,,,,,,,,,,,
3173393164,5148651,Kevin,Mortensen,81158745,Inactive,Agent,81158745,Inactive,Agent,AHC6588791,AHC6588791,AETNA,G,200,,msp,2021-12-01,,2022-05-01,,2022-04-12,,2022-05-01,True,False,
,,,,,,,,,,,,,,,,,,,,,,,,,,
3173149813,5569551,Darlene,Mundell,81158745,Inactive,Agent,81158745,Inactive,Agent,AHC6550202,AHC6550202,AETNA,G,500,,msp,2021-09-20,,2021-11-01,2022-08-02,2021-10-31,,2021-11-01,False,False,
,,,,,,,,,,,,,,,,,,,,,,,,,,
3173323264,3697001,Sharon,Olson,81158745,Inactive,Agent,81158745,Inactive,Agent,3490305525,A03311634,AARP,G,200,,msp,2021-07-30,,2021-09-01,,,,2021-09-01,True,True,
,,,,,,,,,,,,,,,,,,,,,,,,,,
3173298517,1681051,Laurel,Perry,81158745,Inactive,Agent,81158745,Inactive,Agent,AHC6540258,AHC6540258,AETNA,N,200,,msp,2021-08-17,,2021-09-01,,,,2021-09-01,True,True,
,,,,,,,,,,,,,,,,,,,,,,,,,,
3173324166,3875751,Nancy,Phelan,81158745,Inactive,Agent,81158745,Inactive,Agent,3279121770,A03307908,AARP,G,200,,msp,2021-07-26,,2021-09-01,,,,2021-09-01,True,True,
,,,,,,,,,,,,,,,,,,,,,,,,,,
3173286266,3508801,Vince,Pujalte,81158745,Inactive,Agent,81158745,Inactive,Agent,AHL6299547,AHL6299547,AETNA,G,200,,msp,2021-12-01,,2022-03-01,,,,2022-03-01,True,False,
,,,,,,,,,,,,,,,,,,,,,,,,,,
3173308518,3369501,Robert,Reardon,81158745,Inactive,Agent,81158745,Inactive,Agent,3231900725,A03295773,AARP,G,500,,msp,2021-07-12,,2021-08-01,,2022-09-30,Client died 9/27/22- RIP,2021-08-01,False,False,
,,,,,,,,,,,,,,,,,,,,,,,,,,
3173308578,3485501,Debra,Reardon,81158745,Inactive,Agent,81158745,Inactive,Agent,3231900725,A03295781,AARP,G,200,,msp,2021-07-12,,2021-08-01,,,,2021-08-01,True,True,
,,,,,,,,,,,,,,,,,,,,,,,,,,
3173164050,4520601,Cecil,Rice,81158745,Inactive,Agent,81158745,Inactive,Agent,CLI6696359,CLI6696359,AETNA,G,500,,msp,2021-08-12,,2021-11-01,2021-09-09,2021-09-09,,2021-11-01,False,False,
,,,,,,,,,,,,,,,,,,,,,,,,,,
3173216512,3279051,Rita,Rice,81158745,Inactive,Agent,81158745,Inactive,Agent,CLI6695853,CLI6695853,AETNA,G,500,,msp,2021-08-11,,2022-02-01,2021-09-01,2021-09-01,,2022-02-01,False,False,
,,,,,,,,,,,,,,,,,,,,,,,,,,
3173286579,2666201,Johnnie,Rice,81158745,Inactive,Agent,81158745,Inactive,Agent,3489415780,A03302076,AARP,G,200,,msp,2021-07-16,,2021-10-01,,,,2021-10-01,True,True,
,,,,,,,,,,,,,,,,,,,,,,,,,,
3173259096,7323551,Josette,Rich,81158745,Inactive,Agent,81158745,Inactive,Agent,3494922481,A03384423,AARP,G,200,,msp,2021-10-19,,2021-11-01,,,,2021-11-01,True,False,
,,,,,,,,,,,,,,,,,,,,,,,,,,
3173142030,4913151,Melvin,Richardson,81158745,Inactive,Agent,81158745,Inactive,Agent,3491568550,A03343155,AARP,G,200,,msp,2021-08-20,,2021-09-01,,,,2021-09-01,True,True,
,,,,,,,,,,,,,,,,,,,,,,,,,,
3173125212,7709751,Laura,Robbins,81158745,Inactive,Agent,81158745,Inactive,Agent,AHC6569182,AHC6569182,AETNA,G,500,,msp,2021-11-01,,2022-04-01,2022-02-18,2022-02-18,,2022-04-01,False,False,
,,,,,,,,,,,,,,,,,,,,,,,,,,
3173323181,3725001,Susan,Rowdon,81158745,Inactive,Agent,81158745,Inactive,Agent,3199431283,A03308878,AARP,G,200,,msp,2021-07-27,,2021-08-01,,,,2021-08-01,True,True,
,,,,,,,,,,,,,,,,,,,,,,,,,,
3173324188,3838701,CJ,San Julian,81158745,Inactive,Agent,81158745,Inactive,Agent,3479538435,A03308095,AARP,G,200,,msp,2021-07-26,,2021-11-01,,,,2021-11-01,True,False,
,,,,,,,,,,,,,,,,,,,,,,,,,,
3173184891,6195751,Melissa,Schanze,81158745,Inactive,Agent,81158745,Inactive,Agent,AHC6551513,AHC6551513,AETNA,G,200,,msp,2021-09-24,,2022-01-01,,,,2022-01-01,True,False,
,,,,,,,,,,,,,,,,,,,,,,,,,,
3170712159,5298451,Steven,Schouten,81158745,Inactive,Agent,81158745,Inactive,Agent,3158756233,A03355965,AARP,G,200,,msp,2021-08-31,,2021-12-01,,,,2021-12-01,True,False,
,,,,,,,,,,,,,,,,,,,,,,,,,,
3173125467,7514801,Dalia,Schwartz,81158745,Inactive,Agent,81158745,Inactive,Agent,3183601024,,AARP,G,450,,msp,2021-10-27,,2022-01-01,2022-10-10,2021-12-23,,2022-01-01,False,False,False
,,,,,,,,,,,,,,,,,,,,,,,,,,
3173126320,3932351,Robin,Shaffer,81158745,Inactive,Agent,81158745,Inactive,Agent,3490114000,A03324540,AARP,G,200,,msp,2021-08-17,,2022-01-01,,,,2022-01-01,True,False,
,,,,,,,,,,,,,,,,,,,,,,,,,,
3173393716,6342401,Jeff,Sherr,81158745,Inactive,Agent,81158745,Inactive,Agent,3493680056,A03368845,AARP,G,200,,msp,2021-09-27,,2021-12-01,,,,2021-12-01,True,False,
,,,,,,,,,,,,,,,,,,,,,,,,,,
3173393211,5018151,Belinda,Singleton,81158745,Inactive,Agent,81158745,Inactive,Agent,CLI6743165,CLI6743165,AETNA,G,200,,msp,2021-11-04,,2021-12-01,,,,2021-12-01,True,False,
,,,,,,,,,,,,,,,,,,,,,,,,,,
3173126291,3954451,Danny,Tennison,81158745,Inactive,Agent,81158745,Inactive,Agent,3490169558,A03309909,AARP,M1A,200,,msp,2021-07-28,,2021-10-01,,,,2021-10-01,True,True,
,,,,,,,,,,,,,,,,,,,,,,,,,,
3173117316,8663851,Michael,Vandewiele,81158745,Inactive,Agent,81158745,Inactive,Agent,Pending Member ID,A03418843,AARP,G,200,,msp,2022-01-03,2022-01-03,2022-04-01,,,,2022-04-01,True,False,
,,,,,,,,,,,,,,,,,,,,,,,,,,
3173184851,6403351,Sandra,Webb,81158745,Inactive,Agent,81158745,Inactive,Agent,CLI6719524,CLI6719524,AETNA,G,200,,msp,2021-09-29,,2021-11-01,,,,2021-11-01,True,False,
,,,,,,,,,,,,,,,,,,,,,,,,,,
3173126263,4054501,Mark,Whitney,81158745,Inactive,Agent,81158745,Inactive,Agent,3490434663,A03312864,AARP,G,200,,msp,2021-08-02,,2021-09-01,,,,2021-09-01,True,True,
,,,,,,,,,,,,,,,,,,,,,,,,,,
3173177361,4142701,Patricia ,Whitney,81158745,Inactive,Agent,81158745,Inactive,Agent,3490434663,A03312885,AARP,G,200,,msp,2021-08-02,,2021-09-01,,,,2021-09-01,True,True,
,,,,,,,,,,,,,,,,,,,,,,,,,,
3173125239,7707101,Glen,Whittington,81158745,Inactive,Agent,81158745,Inactive,Agent,CLI6736456,CLI6736456,AETNA,G,200,,msp,2021-10-25,,2021-11-01,,,,2021-11-01,True,False,
,,,,,,,,,,,,,,,,,,,,,,,,,,
3173125529,7616851,Kathy,Whittington,81158745,Inactive,Agent,81158745,Inactive,Agent,CLI6736490,CLI6736490,AETNA,G,200,,msp,2021-10-25,,2022-03-01,,,,2022-03-01,True,False,
,,,,,,,,,,,,,,,,,,,,,,,,,,
3173142081,4950901,Darlene,Williams,81158745,Inactive,Agent,81158745,Inactive,Agent,3284999798,A03351027,AARP,G,500,,msp,2021-08-24,,2021-12-01,2022-05-15,2022-02-28,,2021-12-01,False,False,
,,,,,,,,,,,,,,,,,,,,,,,,,,
3173324155,3905351,Melvin,Young,81158745,Inactive,Agent,81158745,Inactive,Agent,3490102906,A03308976,AARP,G,200,,msp,2021-07-27,,2021-08-01,,,,2021-08-01,True,True,
,,,,,,,,,,,,,,,,,,,,,,,,,,
3173117324,8593152,Raquel,Zerpa,81158745,Inactive,Agent,81158745,Inactive,Agent,3134023351,A03416354,AARP,G,500,,msp,2021-11-17,2021-11-17,2021-12-01,2021-12-31,2021-12-31,,2021-12-01,False,False,
,,,,,,,,,,,,,,,,,,,,,,,,,,
3173324139,3828701,Robin,Zmijewsky,81158745,Inactive,Agent,81158745,Inactive,Agent,3489891337,A03307164,AARP,G,200,,msp,2021-07-23,,2021-09-01,,,,2021-09-01,True,True,
,,,,,,,,,,,,,,,,,,,,,,,,,,
3173125485,7494351,helen,holt,81158745,Inactive,Agent,81158745,Inactive,Agent,AHC6562178,AHC6562178,AETNA,G,200,,msp,2021-10-20,,2021-11-01,,,,2021-11-01,True,False,
,,,,,,,,,,,,,,,,,,,,,,,,,,
3173229173,8033501,richard,robbins,81158745,Inactive,Agent,81158745,Inactive,Agent,AHC6569164,AHC6569164,AETNA,G,500,,msp,2021-11-01,,2022-01-01,2021-11-05,2021-11-05,,2022-01-01,False,False,
,,,,,,,,,,,,,,,,,,,,,,,,,,
3173273186,8583051,sandra,tapia,81158745,Inactive,Agent,81158745,Inactive,Agent,3496437058,A03415506,AARP,G,200,,msp,2021-11-16,2021-11-16,2022-02-01,,,,2022-02-01,True,False,
,,,,,,,,,,,,,,,,,,,,,,,,,,
3166998860,7087551,Aby,Abraham,81158745,Inactive,Agent,81158745,Inactive,Agent,Pending Member ID,,HUMANA,Humana Gold Plus H0028-042 (HMO),480,,map,2021-11-29,,2022-01-01,2021-12-28,2021-12-28,,2022-01-01,False,False,False
,,,,,,,,,,,,,,,,,,,,,,,,,,
3168395331,5233651,Mary,Anders,81158745,Inactive,Agent,81158745,Inactive,Agent,985877442,,AARP/UHC,AARP Medicare Advantage Choice (PPO),200,,map,2021-12-02,,2022-01-01,,,,2022-01-01,True,False,
,,,,,,,,,,,,,,,,,,,,,,,,,,
3168300343,2409251,Jennifer,Balde,81158745,Inactive,Agent,81158745,Inactive,Agent,971235898,,AARP/UHC,AARP Medicare Advantage Choice (PPO),200,,map,2021-09-14,,2022-01-01,,,,2022-01-01,True,False,
,,,,,,,,,,,,,,,,,,,,,,,,,,
3168531880,8645151,Linda,Berry,81158745,Inactive,Agent,81158745,Inactive,Agent,NG101492676500,,AETNA,Aetna Medicare Advantra Premier (HMO-POS),200,,map,2021-11-19,,2022-01-01,,,,2022-01-01,True,False,
,,,,,,,,,,,,,,,,,,,,,,,,,,
3168543856,7665351,Donna,Black,81158745,Inactive,Agent,81158745,Inactive,Agent,Pending Member ID,,AARP/UHC,UnitedHealthcare Dual Complete Choice (Regional PPO D-SNP),480,,map,2021-11-15,,2021-12-01,2021-12-08,2021-11-30,,2021-12-01,False,False,False
,,,,,,,,,,,,,,,,,,,,,,,,,,
3168379019,7947651,Joe,Blankenship,81158745,Inactive,Agent,81158745,Inactive,Agent,H42517522,,HUMANA,HumanaChoice H5216-203 (PPO),200,,map,2021-11-24,,2022-01-01,,,,2022-01-01,True,False,
,,,,,,,,,,,,,,,,,,,,,,,,,,
3168508849,6902151,Vona,Brambilla,81158745,Inactive,Agent,81158745,Inactive,Agent,H60619720,,HUMANA,HumanaChoice H5216-185 (PPO),200,,map,2021-12-07,,2022-01-01,,,,2022-01-01,True,False,
,,,,,,,,,,,,,,,,,,,,,,,,,,
3168531117,7117051,Tammy,Coiteux,81158745,Inactive,Agent,81158745,Inactive,Agent,986455409,,AARP/UHC,AARP Medicare Advantage Choice (PPO),200,,map,2021-11-04,,2022-01-01,,,,2022-01-01,True,False,
,,,,,,,,,,,,,,,,,,,,,,,,,,
3168225375,5469101,Donna,Cothran,81158745,Inactive,Agent,81158745,Inactive,Agent,918161837,,AARP/UHC,AARP Medicare Advantage Plan 1 (HMO),200,,map,2021-10-18,,2022-01-01,,,,2022-01-01,True,False,
,,,,,,,,,,,,,,,,,,,,,,,,,,
3168532003,8902901,Tomas,Cruz,81158745,Inactive,Agent,81158745,Inactive,Agent,H69361077,,HUMANA,Humana Honor (PPO),200,,map,2021-11-29,,2022-01-01,,,,2022-01-01,True,False,
,,,,,,,,,,,,,,,,,,,,,,,,,,
3167089827,4063101,Amar,Deliou,81158745,Inactive,Agent,66410900,Nick,Thompson,Pending Member ID,,HUMANA,HumanaChoiceH5970-015 (PPO),480,,map,2021-08-31,,2021-09-01,2022-05-15,2021-12-31,,2021-09-01,False,False,
,,,,,,,,,,,,,,,,,,,,,,,,,,
3168493710,8583501,Norma,Edmonds,81158745,Inactive,Agent,81158745,Inactive,Agent,36026856,,CIGNA,Cigna True Choice Medicare (PPO),200,,map,2021-11-18,,2022-01-01,,,,2022-01-01,True,False,
,,,,,,,,,,,,,,,,,,,,,,,,,,
3168544429,8595301,Wilna,Ehrlich,81158745,Inactive,Agent,81158745,Inactive,Agent,33773859,,WELLCARE,Wellcare No Premium(HMO-POS),480,,map,2021-11-18,,2022-01-01,2021-12-29,2021-12-29,,2022-01-01,False,False,
,,,,,,,,,,,,,,,,,,,,,,,,,,
3166998795,5955901,Carlos,Flores De Lucio,81158745,Inactive,Agent,81158745,Inactive,Agent,Pending Member ID,,AARP/UHC,AARP Medicare Advantage (HMO),480,,map,2022-01-19,2022-01-18,2022-02-01,2022-01-24,2022-01-24,,2022-02-01,False,False,False
,,,,,,,,,,,,,,,,,,,,,,,,,,
3168418830,7123351,Edward,Gomes,81158745,Inactive,Agent,81158745,Inactive,Agent,H05801737,,HUMANA,Humana Honor (PPO),200,,map,2021-11-04,,2022-01-01,,,,2022-01-01,True,False,
,,,,,,,,,,,,,,,,,,,,,,,,,,
3167056439,7790751,Cathy,Gomila,81158745,Inactive,Agent,81158745,Inactive,Agent,101487583300,,AETNA,Aetna Medicare Value Plan (PPO),200,,map,2021-11-11,,2022-01-01,,,,2022-01-01,True,False,
,,,,,,,,,,,,,,,,,,,,,,,,,,
3168493165,6237301,John,Gomila,81158745,Inactive,Agent,81158745,Inactive,Agent,101488197300,,AETNA,Aetna Medicare Value Plan (PPO),200,,map,2021-11-12,,2022-01-01,,,,2022-01-01,True,False,
,,,,,,,,,,,,,,,,,,,,,,,,,,
3168223585,4429301,Eileen,Herrell,81158745,Inactive,Agent,81158745,Inactive,Agent,Pending Member ID,,AARP/UHC,UnitedHealthcare Medicare Advantage Choice Plan 1 (Regional PPO),480,,map,2021-08-09,,2021-09-01,2021-09-28,2021-09-28,,2021-09-01,False,False,False
,,,,,,,,,,,,,,,,,,,,,,,,,,
3168302949,4323601,William,Herrell,81158745,Inactive,Agent,81158745,Inactive,Agent,933453675,,AARP/UHC,UnitedHealthcare Medicare Advantage Choice Plan 1 (Regional PPO),200,,map,2021-08-31,,2021-09-01,,,,2021-09-01,True,True,
,,,,,,,,,,,,,,,,,,,,,,,,,,
3168246690,5970451,Linda,Lang,81158745,Inactive,Agent,81158745,Inactive,Agent,Pending Member ID,,HUMANA,Humana Gold Plus H1036-219 (HMO),480,,map,2021-11-12,,2022-01-01,2022-05-15,2022-02-28,,2022-01-01,False,False,
,,,,,,,,,,,,,,,,,,,,,,,,,,
3168453220,7553751,Mattie,Lewis,81158745,Inactive,Agent,81158745,Inactive,Agent,976238305 / 946013488,,AARP/UHC,AARP Medicare Advantage Plan 2 (HMO),200,,map,2021-11-11,,2022-01-01,,,,2022-01-01,True,False,
,,,,,,,,,,,,,,,,,,,,,,,,,,
3168378965,7797451,JOAN,MASON,81158745,Inactive,Agent,81158745,Inactive,Agent,101488415500,,AETNA,Aetna Medicare Premier (HMO-POS),480,,map,2021-11-12,,2022-01-01,2022-06-27,2022-01-01,,2022-01-01,False,False,
,,,,,,,,,,,,,,,,,,,,,,,,,,
3168304023,6801001,Ken,Mason,81158745,Inactive,Agent,81158745,Inactive,Agent,NG101491160800,,AETNA,Aetna Medicare Premier (HMO-POS),200,,map,2021-11-17,,2022-01-01,,,,2022-01-01,True,False,
,,,,,,,,,,,,,,,,,,,,,,,,,,
3168354980,4391301,Sirri,Nomo-Ongolo,81158745,Inactive,Agent,81158745,Inactive,Agent,927011464,,AARP/UHC,AARP Medicare Advantage Premier (PPO),200,,map,2021-11-11,,2022-01-01,,,,2022-01-01,True,False,
,,,,,,,,,,,,,,,,,,,,,,,,,,
3168304143,7298501,Howard,Peoples,81158745,Inactive,Agent,81158745,Inactive,Agent,C4043295201,,WELLCARE,Wellcare Giveback(HMO),200,,map,2021-10-16,,2022-01-01,,,,2022-01-01,True,False,
,,,,,,,,,,,,,,,,,,,,,,,,,,
3168531107,6883901,Brenda,Peoples,81158745,Inactive,Agent,81158745,Inactive,Agent,C4043298301,,WELLCARE,Wellcare Giveback(HMO),200,,map,2021-11-16,,2022-01-01,,,,2022-01-01,True,False,
,,,,,,,,,,,,,,,,,,,,,,,,,,
3168356757,7476001,Michael,Pepo,81158745,Inactive,Agent,81158745,Inactive,Agent,H65099214,,HUMANA,Humana Gold PlusH1036-291 (HMO),200,,map,2021-12-27,,2022-01-01,,,,2022-01-01,True,False,
,,,,,,,,,,,,,,,,,,,,,,,,,,
3168433563,6577151,Herbert,Powell,81158745,Inactive,Agent,81158745,Inactive,Agent,H75166247,,HUMANA,Humana Honor R1390-003 (Regional PPO),200,,map,2021-11-12,2021-10-15,2022-01-01,,,,2022-01-01,True,False,
,,,,,,,,,,,,,,,,,,,,,,,,,,
3168379063,8363951,LESLIE,REGNIER,81158745,Inactive,Agent,81158745,Inactive,Agent,H64822498,,HUMANA,Humana Gold Plus H1036-219 (HMO),480,,map,2021-11-16,,2022-01-01,2022-05-15,2022-02-28,,2022-01-01,False,False,
,,,,,,,,,,,,,,,,,,,,,,,,,,
3166999580,8788451,Sylvia,Reed,81158745,Inactive,Agent,81158745,Inactive,Agent,H75398178,,HUMANA,HumanaChoice H5216-185 (PPO),200,,map,2021-11-29,,2022-01-01,,,,2022-01-01,True,False,
,,,,,,,,,,,,,,,,,,,,,,,,,,
3168265544,5348151,Hugh,Reid,81158745,Inactive,Agent,81158745,Inactive,Agent,Pending Member ID,,HUMANA,HumanaChoice H5216-196 (PPO),480,,map,2021-09-21,,2021-10-01,2022-05-15,2021-12-31,,2021-10-01,False,False,
,,,,,,,,,,,,,,,,,,,,,,,,,,
3168508788,5824751,Katherine,Rogers,81158745,Inactive,Agent,81158745,Inactive,Agent,Pending Member ID,,HUMANA,HumanaChoice H5216-109 (PPO),480,,map,2021-09-15,,2021-10-01,2022-05-15,2021-12-31,,2021-10-01,False,False,
,,,,,,,,,,,,,,,,,,,,,,,,,,
3168356521,5687351,Kellie,Rosas,81158745,Inactive,Agent,81158745,Inactive,Agent,Pending Member ID,,HUMANA,Humana Gold Plus H5619-114 (HMO),200,,map,2021-09-14,,2021-10-01,,,,2021-10-01,True,True,
,,,,,,,,,,,,,,,,,,,,,,,,,,
3168376139,4103251,Osceola,Russell,81158745,Inactive,Agent,81158745,Inactive,Agent,Pending Member ID,,HUMANA,Humana Honor R1390-003 (Regional PPO),200,,map,2021-12-09,,2022-03-01,,,,2022-03-01,True,False,
,,,,,,,,,,,,,,,,,,,,,,,,,,
3167091830,7702151,Alberto,Salkeld,81158745,Inactive,Agent,81158745,Inactive,Agent,996038024,,AARP/UHC,AARP Medicare Advantage Choice (PPO),200,,map,2021-10-26,,2022-01-01,,,,2022-01-01,True,False,
,,,,,,,,,,,,,,,,,,,,,,,,,,
3167091268,5512351,Etta,Smith,81158745,Inactive,Agent,81158745,Inactive,Agent,33666096,,WELLCARE,Wellcare GivebackOpen (PPO),200,,map,2021-11-12,,2022-01-01,,,,2022-01-01,True,False,
,,,,,,,,,,,,,,,,,,,,,,,,,,
3168473380,8658951,Jean,Smith,81158745,Inactive,Agent,81158745,Inactive,Agent,934538525,,AARP/UHC,AARP Medicare Advantage Plan 1 (HMO),200,,map,2021-11-19,,2022-01-01,,,,2022-01-01,True,False,
,,,,,,,,,,,,,,,,,,,,,,,,,,
3168265748,7377101,paul,Speer,81158745,Inactive,Agent,81158745,Inactive,Agent,Pending Member ID,,HUMANA,HumanaChoice H5216-272 (PPO),480,,map,2021-10-18,,2022-01-01,2021-11-01,2021-11-01,,2022-01-01,False,False,False
,,,,,,,,,,,,,,,,,,,,,,,,,,
3168378009,6033351,Joan,Speer,81158745,Inactive,Agent,81158745,Inactive,Agent,Pending Member ID,,HUMANA,HumanaChoice H5216-272 (PPO),480,,map,,2021-11-01,2022-02-01,2021-10-29,2021-10-29,,2022-02-01,False,False,False
,,,,,,,,,,,,,,,,,,,,,,,,,,
3168322978,4433751,Charlette,Thomas,81158745,Inactive,Agent,81158745,Inactive,Agent,Pending Member ID,,HUMANA,Humana Value PlusH5216-199 (PPO),480,,map,2021-08-10,,2021-11-01,2021-11-15,2021-10-31,,2021-11-01,False,False,False
,,,,,,,,,,,,,,,,,,,,,,,,,,
3168543275,4823451,Rejena,Turner,81158745,Inactive,Agent,81158745,Inactive,Agent,36452248,,CIGNA,Cigna True Choice Medicare (PPO),200,,map,2021-10-15,,2022-01-01,,,,2022-01-01,True,False,
,,,,,,,,,,,,,,,,,,,,,,,,,,
3168531219,7303301,Katherine ,Walker,81158745,Inactive,Agent,81158745,Inactive,Agent,H67260700,,HUMANA,Humana Gold PlusH0028-019 (HMO),200,,map,2021-11-29,,2022-01-01,,,,2022-01-01,True,False,
,,,,,,,,,,,,,,,,,,,,,,,,,,
3168563601,7162551,Jackie,Webb,81158745,Inactive,Agent,81158745,Inactive,Agent,988632964,,AARP/UHC,AARP Medicare Advantage Plan 1 (HMO-POS),200,,map,2021-12-13,,2022-01-01,,,,2022-01-01,True,False,
,,,,,,,,,,,,,,,,,,,,,,,,,,
3168563586,6795801,Wanda,White,81158745,Inactive,Agent,81158745,Inactive,Agent,Pending Member ID,,HUMANA,HumanaChoiceH5525-051 (PPO),480,,map,2021-11-11,,2022-01-01,2022-02-01,2021-12-31,,2022-01-01,False,False,
,,,,,,,,,,,,,,,,,,,,,,,,,,
3168326319,8701101,Lawrence,Wooding,81158745,Inactive,Agent,81158745,Inactive,Agent,986380642,,AARP/UHC,UnitedHealthcare Dual Complete (PPO D-SNP),200,,map,2021-12-07,,2022-01-01,,,,2022-01-01,True,False,
,,,,,,,,,,,,,,,,,,,,,,,,,,
3168265629,6883151,Debra,Young,81158745,Inactive,Agent,81158745,Inactive,Agent,942560697,,AARP/UHC,AARP Medicare Advantage Plan 1 (HMO-POS),200,,map,2021-11-11,,2022-01-01,,,,2022-01-01,True,False,
,,,,,,,,,,,,,,,,,,,,,,,,,,
3168543345,6176351,Joel,Young,81158745,Inactive,Agent,81158745,Inactive,Agent,914619099,,AARP/UHC,AARP Medicare Advantage Plan 1 (HMO-POS),200,,map,2021-11-11,,2022-01-01,,,,2022-01-01,True,False,
,,,,,,,,,,,,,,,,,,,,,,,,,,
3168531713,7838551,Yolanda,Yvonne Williams,81158745,Inactive,Agent,81158745,Inactive,Agent,943576066,,AARP/UHC,UnitedHealthcare Dual Complete Choice (Regional PPO D-SNP),480,,map,2021-11-12,,2022-01-01,2022-05-15,2022-03-31,,2022-01-01,False,False,
,,,,,,,,,,,,,,,,,,,,,,,,,,
3168304427,7559751,Gary,blanchard,81158745,Inactive,Agent,81158745,Inactive,Agent,H77382359,,HUMANA,Humana Honor (PPO),200,,map,2021-12-29,,2022-01-01,,,,2022-01-01,True,False,
,,,,,,,,,,,,,,,,,,,,,,,,,,
3168531727,7896701,thien,calfee,81158745,Inactive,Agent,81158745,Inactive,Agent,Pending Member ID,,HUMANA,Humana Honor (HMO),480,,map,2021-11-11,,2022-01-01,2022-05-15,2022-01-31,,2022-01-01,False,False,
,,,,,,,,,,,,,,,,,,,,,,,,,,
3168283722,5917351,charles,e neal,81158745,Inactive,Agent,81158745,Inactive,Agent,Pending Member ID,,HUMANA,Honor Plan PPO H5216_217_000,480,,map,2021-09-15,,2021-10-01,2022-05-15,2021-12-31,,2021-10-01,False,False,
,,,,,,,,,,,,,,,,,,,,,,,,,,
3168531087,6448751,william,grape,81158745,Inactive,Agent,81158745,Inactive,Agent,965877764,,AARP/UHC,AARP Medicare Advantage Patriot (PPO),200,,map,2021-11-11,,2022-01-01,,,,2022-01-01,True,False,
,,,,,,,,,,,,,,,,,,,,,,,,,,
3168353605,3715751,michael,mcgee,81158745,Inactive,Agent,81158745,Inactive,Agent,Pending Member ID,,HUMANA,Humana Community (HMO),480,,map,2021-10-29,,2021-11-01,2022-05-15,2022-02-28,,2021-11-01,False,False,
,,,,,,,,,,,,,,,,,,,,,,,,,,
