id,originally_associated_contact_id,firstname,lastname,agent_originating,agent_firstname,agent_lastname,hubspot_owner_id,hs_owner_firstname,hs_owner_lastname,policy_number,commission_id,carrier,plan_name,status,gi___not_commissionable,plan_type,date_actual_submission,date_requested_submission,date_effective,date_cancel_notification,date_cancel_actual,notes_misc_cancel,first_date_effective,active_policy,residual,grey
3172342187,7340751,Mary,Anthony,89311810,Jordan,Otte,89311810,Jordan,Otte,10250669328,,AMERITAS,PrimeStar® Access,200,,dvh,2021-10-21,,2021-11-01,,,,,,,
,,,,,,,,,,,,,,,,,,,,,,,,,,
3172310874,17626751,Rudy,Arn,89311810,Jordan,Otte,89311810,Jordan,Otte,10250878094,,AMERITAS,PrimeStar® Total,200,,dvh,2022-07-26,2022-07-25,2022-08-01,,,,,,,
,,,,,,,,,,,,,,,,,,,,,,,,,,
3172148821,4787101,Tess,Barcelon,89311810,Jordan,Otte,89311810,Jordan,Otte,250679793,,AMERITAS,PrimeStar® Access,200,,dvh,2021-11-02,,2022-01-01,,,,,,,
,,,,,,,,,,,,,,,,,,,,,,,,,,
3172252243,9588551,Karen,Bishop,89311810,Jordan,Otte,89311810,Jordan,Otte,10250757193,,AMERITAS,PrimeStar® Access,200,,dvh,2022-01-19,2022-01-19,2022-02-01,,,,,,,
,,,,,,,,,,,,,,,,,,,,,,,,,,
3172197898,6828351,James,Bridegum,89311810,Jordan,Otte,89311810,Jordan,Otte,10250832316,,AMERITAS,PrimeStar® Value,200,,dvh,2022-05-09,2022-05-09,2022-07-01,,,,,,,
,,,,,,,,,,,,,,,,,,,,,,,,,,
3172322106,14266901,John,Bubenik,89311810,Jordan,Otte,89311810,Jordan,Otte,10250819690,,AMERITAS,PrimeStar® Value,200,,dvh,2022-04-20,2022-04-19,2022-05-01,,,,,,,
,,,,,,,,,,,,,,,,,,,,,,,,,,
3172404345,22148701,Marta,Bunuel-Jordana,89311810,Jordan,Otte,89311810,Jordan,Otte,10250910817,,AMERITAS,PrimeStar® Total,200,,dvh,2022-09-15,2022-09-15,2022-12-01,,,,,,,
,,,,,,,,,,,,,,,,,,,,,,,,,,
3172392064,11391451,Cathy,Byers,89311810,Jordan,Otte,89311810,Jordan,Otte,10250866612	,,AMERITAS,PrimeStar® Total,200,,dvh,2022-07-06,2022-07-05,2022-10-01,,,,,,,
,,,,,,,,,,,,,,,,,,,,,,,,,,
3172219156,15108401,Diane,Cadenhead,89311810,Jordan,Otte,89311810,Jordan,Otte,10250839638,,AMERITAS,PrimeStar® Total,200,,dvh,2022-05-19,2022-05-19,2022-07-01,,,,,,,
,,,,,,,,,,,,,,,,,,,,,,,,,,
3172288036,19674451,Laurie,Cancellieri,89311810,Jordan,Otte,89311810,Jordan,Otte,26250113450,,AMERITAS,PrimeStar® Total,200,,dvh,2022-09-15,2022-09-15,2022-10-31,,,,,,,
,,,,,,,,,,,,,,,,,,,,,,,,,,
3172219207,20829201,Michael,Crews,89311810,Jordan,Otte,89311810,Jordan,Otte,10250900795,,AMERITAS,PrimeStar® Total,200,,dvh,2022-08-30,2022-08-30,2022-10-01,,,,,,,
,,,,,,,,,,,,,,,,,,,,,,,,,,
3172287824,12440601,Jose,Custodio,89311810,Jordan,Otte,89311810,Jordan,Otte,10250888774,,AMERITAS,PrimeStar® Value,200,,dvh,2022-08-11,2022-08-10,2022-09-01,,,,,,,
,,,,,,,,,,,,,,,,,,,,,,,,,,
3172342168,7301701,Bruce,Cyganoski,89311810,Jordan,Otte,89311810,Jordan,Otte,NA,,AMERITAS,PrimeStar® Value,200,,dvh,2022-03-22,2022-03-17,2022-04-01,,,,,,,False
,,,,,,,,,,,,,,,,,,,,,,,,,,
3172310621,3896051,Bob,Dawson,89311810,Jordan,Otte,89311810,Jordan,Otte,10250668484,,AMERITAS,PrimeStar® Access,200,,dvh,2021-10-20,,2021-11-01,,,,,,,
,,,,,,,,,,,,,,,,,,,,,,,,,,
3172322415,8757651,Virginia (Ginny),Delino,89311810,Jordan,Otte,89311810,Jordan,Otte,00250710773	,,AMERITAS,PrimeStar® Value,200,,dvh,2021-12-01,,2022-01-01,,,,,,,
,,,,,,,,,,,,,,,,,,,,,,,,,,
3172322121,13962601,Joseph,Dunn,89311810,Jordan,Otte,89311810,Jordan,Otte,10250922650,,AMERITAS,PrimeStar® Total,200,,dvh,2022-10-05,2022-10-05,2022-11-01,,,,,,,
,,,,,,,,,,,,,,,,,,,,,,,,,,
3172342292,7841351,Steven,Farley,89311810,Jordan,Otte,89311810,Jordan,Otte,250680860,,AMERITAS,PrimeStar® Total,200,,dvh,2021-11-03,,2022-01-01,,,,,,,
,,,,,,,,,,,,,,,,,,,,,,,,,,
3172252053,6139901,Sandra,Flint,89311810,Jordan,Otte,89311810,Jordan,Otte,10250671776,,AMERITAS,PrimeStar® Access,200,,dvh,2021-10-25,,2021-11-03,,,,,,,
,,,,,,,,,,,,,,,,,,,,,,,,,,
3172342279,7711451,Jasper,Flint,89311810,Jordan,Otte,89311810,Jordan,Otte,10250671821,,AMERITAS,PrimeStar® Access,200,,dvh,2021-10-25,,2021-11-01,,,,,,,
,,,,,,,,,,,,,,,,,,,,,,,,,,
3172392066,11680151,John,Forrest,89311810,Jordan,Otte,89311810,Jordan,Otte,10250838702,,AMERITAS,,200,,dvh,2022-05-18,2022-05-16,2022-07-01,,,,,,,
,,,,,,,,,,,,,,,,,,,,,,,,,,
3583294102,23982051,Patricia,Fulkman,89311810,Jordan,Otte,89311810,Jordan,Otte,Pending Member ID,,AMERITAS,PrimeStar® Total,200,,dvh,2022-10-31,2022-10-29,2022-11-01,,,,,,,False
,,,,,,,,,,,,,,,,,,,,,,,,,,
3583294110,24011151,Harold,Fulkman,89311810,Jordan,Otte,89311810,Jordan,Otte,Pending Member ID,,AMERITAS,PrimeStar® Total,200,,dvh,2022-10-31,2022-10-29,2022-11-01,,,,,,,False
,,,,,,,,,,,,,,,,,,,,,,,,,,
3172391826,8153101,Dorothy,Garrison,89311810,Jordan,Otte,89311810,Jordan,Otte,250690647,,AMERITAS,PrimeStar® Value,200,,dvh,2021-11-12,,2021-12-01,,,,,,,
,,,,,,,,,,,,,,,,,,,,,,,,,,
3817854366,5235201,Linda,Gorman,89311810,Jordan,Otte,89311810,Jordan,Otte,Pending Member ID,,AMERITAS,PrimeStar® Total,200,,dvh,2022-11-11,2022-11-10,2022-12-01,,,,,,,False
,,,,,,,,,,,,,,,,,,,,,,,,,,
3172252337,21878001,Cecil,Gorman,89311810,Jordan,Otte,89311810,Jordan,Otte,10250907159	,,AMERITAS,PrimeStar® Total,200,,dvh,2022-09-09,2022-09-08,2022-12-01,,,,,,,
,,,,,,,,,,,,,,,,,,,,,,,,,,
3172322165,5477801,Marion,Haughton,89311810,Jordan,Otte,89311810,Jordan,Otte,10250640499,,AMERITAS,PrimeStar® Access,200,,dvh,2021-09-10,,2021-12-01,,,,,,,
,,,,,,,,,,,,,,,,,,,,,,,,,,
3172252316,10248551,Terry,Hopper,89311810,Jordan,Otte,89311810,Jordan,Otte,00250757196,,AMERITAS,PrimeStar® Value,200,,dvh,2022-01-19,2022-01-19,2022-04-01,,,,,,,
,,,,,,,,,,,,,,,,,,,,,,,,,,
3172310878,18020101,Susan,Hughes,89311810,Jordan,Otte,89311810,Jordan,Otte,10250860214,,AMERITAS,PrimeStar® Total,200,,dvh,2022-06-24,2022-06-23,2022-07-01,,,,,,,
,,,,,,,,,,,,,,,,,,,,,,,,,,
3172404287,22991151,William,Hunstock,89311810,Jordan,Otte,89311810,Jordan,Otte,10250922385,,AMERITAS,PrimeStar® Total,500,,dvh,2022-10-05,2022-10-05,2022-12-01,,2022-11-30,,,,,
,,,,,,,,,,,,,,,,,,,,,,,,,,
3172404337,22335601,Cheryl,Hunstock,89311810,Jordan,Otte,89311810,Jordan,Otte,10250922390,,AMERITAS,PrimeStar® Total,500,,dvh,2022-10-05,2022-10-05,2022-12-01,,2022-11-30,,,,,
,,,,,,,,,,,,,,,,,,,,,,,,,,
3172391840,7878401,Joanne,Janik,89311810,Jordan,Otte,89311810,Jordan,Otte,10250850905,,AMERITAS,PrimeStar® Total,200,,dvh,2022-06-09,2022-06-08,2022-09-01,,,,,,,
,,,,,,,,,,,,,,,,,,,,,,,,,,
3172231062,11130751,Kenneth,Jaramillo,89311810,Jordan,Otte,89311810,Jordan,Otte,102507-70675,,AMERITAS,PrimeStar® Access,200,,dvh,2022-02-07,2022-02-03,2022-03-01,,,,,,,
,,,,,,,,,,,,,,,,,,,,,,,,,,
3172231092,11131001,Susan,Jaramillo,89311810,Jordan,Otte,89311810,Jordan,Otte,102507-72287,,AMERITAS,PrimeStar® Access,200,,dvh,2022-02-09,2022-02-03,2022-03-01,,,,,,,
,,,,,,,,,,,,,,,,,,,,,,,,,,
3172322402,8865901,Cindy,Jeror,89311810,Jordan,Otte,89311810,Jordan,Otte,02600250111816,,AMERITAS,,200,,dvh,2022-03-08,2022-03-04,2022-04-01,,,,,,,
,,,,,,,,,,,,,,,,,,,,,,,,,,
3172404311,23050701,Cheryl,Jones,89311810,Jordan,Otte,89311810,Jordan,Otte,NA,,AMERITAS,PrimeStar® Total,200,,dvh,2022-10-31,2022-10-31,2023-01-01,,,,,,,False
,,,,,,,,,,,,,,,,,,,,,,,,,,
3423516484,23623601,Meera,Kazi ,89311810,Jordan,Otte,89311810,Jordan,Otte,Pending Member ID,,AMERITAS,PrimeStar® Value,200,,dvh,2022-10-25,2022-10-21,2023-01-01,,,,,,,False
,,,,,,,,,,,,,,,,,,,,,,,,,,
3702983280,11567551,Beverly,Kerber,89311810,Jordan,Otte,89311810,Jordan,Otte,Pending Member ID,,AMERITAS,PrimeStar® Total,200,,dvh,2022-11-08,2022-11-08,2022-11-09,,,,,,,False
,,,,,,,,,,,,,,,,,,,,,,,,,,
3172252324,21820851,Evan Jane,Kriss,89311810,Jordan,Otte,89311810,Jordan,Otte,10250909123,,AMERITAS,PrimeStar® Access,200,,dvh,2022-09-13,2022-09-09,2022-12-01,,,,,,,
,,,,,,,,,,,,,,,,,,,,,,,,,,
3172231209,11035251,Aurora,Lim,89311810,Jordan,Otte,89311810,Jordan,Otte,10250845790,,AMERITAS,PrimeStar® Access,200,,dvh,2022-05-31,2022-05-31,2022-07-01,,,,,,,
,,,,,,,,,,,,,,,,,,,,,,,,,,
3172361792,20035301,Dwight,Lofton,89311810,Jordan,Otte,89311810,Jordan,Otte,10250891308,,AMERITAS,PrimeStar® Total,200,,dvh,2022-08-16,2022-08-05,2022-09-01,,,,,,,
,,,,,,,,,,,,,,,,,,,,,,,,,,
3172197808,6290501,Terry (Mike),Maddox,89311810,Jordan,Otte,89311810,Jordan,Otte,250679761,,AMERITAS,PrimeStar® Total,500,,dvh,2021-11-02,,2022-01-01,2022-10-16,2022-10-31,,,,,
,,,,,,,,,,,,,,,,,,,,,,,,,,
3778416697,11007601,Michael,Mathis,89311810,Jordan,Otte,89311810,Jordan,Otte,Pending Member ID,,AMERITAS,PrimeStar® Total,200,,dvh,2022-11-08,2022-11-08,2022-12-01,,,,,,,False
,,,,,,,,,,,,,,,,,,,,,,,,,,
3172342148,7508651,William,Matthews,89311810,Jordan,Otte,89311810,Jordan,Otte,10250673279,,AMERITAS,PrimeStar® Access,200,,dvh,2021-10-26,,2021-11-01,,,,,,,
,,,,,,,,,,,,,,,,,,,,,,,,,,
3172342287,7538551,Joy,May,89311810,Jordan,Otte,89311810,Jordan,Otte,10250675814,,AMERITAS,PrimeStar® Access,200,,dvh,2021-10-28,,2021-11-01,,,,,,,
,,,,,,,,,,,,,,,,,,,,,,,,,,
3172252182,6012251,Cindy,Mayhew,89311810,Jordan,Otte,89311810,Jordan,Otte,102507-26252,,AMERITAS,PrimeStar® Value,200,,dvh,2021-12-14,,2022-02-01,,,,,,,
,,,,,,,,,,,,,,,,,,,,,,,,,,
3172362020,13289001,Gary,Merritt,89311810,Jordan,Otte,89311810,Jordan,Otte,NA,,AMERITAS,PrimeStar® Total,200,,dvh,2022-10-12,2022-10-06,2023-01-01,,,,,,,False
,,,,,,,,,,,,,,,,,,,,,,,,,,
3172322104,14671651,Pila,Moline,89311810,Jordan,Otte,89311810,Jordan,Otte,10250868545,,AMERITAS,PrimeStar® Total,200,,dvh,2022-07-08,2022-07-01,2022-09-01,,,,,,,
,,,,,,,,,,,,,,,,,,,,,,,,,,
3503791390,23847701,Linda,Morrow,89311810,Jordan,Otte,89311810,Jordan,Otte,847250551,,AMERITAS,PrimeStar® Value,200,,dvh,2022-10-25,2022-10-25,2022-11-01,,,,,,,
,,,,,,,,,,,,,,,,,,,,,,,,,,
3172287855,12393851,Rick,Moyer,89311810,Jordan,Otte,89311810,Jordan,Otte,10250854687,,AMERITAS,PrimeStar® Total,200,,dvh,2022-06-15,2022-06-15,2022-07-01,,,,,,,
,,,,,,,,,,,,,,,,,,,,,,,,,,
3226580228,23164351,Stan,Mucinic,89311810,Jordan,Otte,89311810,Jordan,Otte,Pending Member ID,,AMERITAS,PrimeStar® Total,200,,dvh,2022-10-13,2022-10-12,2022-11-01,,,,,,,False
,,,,,,,,,,,,,,,,,,,,,,,,,,
3172252241,9797651,Cindy,Mueller,89311810,Jordan,Otte,89311810,Jordan,Otte,10250847467,,AMERITAS,PrimeStar® Total,200,,dvh,2022-06-02,2022-06-01,2022-07-01,,,,,,,
,,,,,,,,,,,,,,,,,,,,,,,,,,
3172252262,9802701,Dan,Mueller,89311810,Jordan,Otte,89311810,Jordan,Otte,10250847469,,AMERITAS,PrimeStar® Total,200,,dvh,2022-06-02,2022-06-01,2022-07-01,,,,,,,
,,,,,,,,,,,,,,,,,,,,,,,,,,
3700439677,23967651,Laura,Murray,89311810,Jordan,Otte,89311810,Jordan,Otte,Pending Member ID,,AMERITAS,PrimeStar® Total,200,,dvh,2022-11-07,2022-11-04,2023-01-01,,,,,,,False
,,,,,,,,,,,,,,,,,,,,,,,,,,
3172252263,9853951,Karen,Nichols,89311810,Jordan,Otte,89311810,Jordan,Otte,00250751804	,,AMERITAS,PrimeStar® Value,200,,dvh,2022-01-13,2022-01-13,2022-04-01,,,,,,,
,,,,,,,,,,,,,,,,,,,,,,,,,,
3172252306,9646451,Richard,Nichols,89311810,Jordan,Otte,89311810,Jordan,Otte,10250868497,,AMERITAS,PrimeStar® Value,200,,dvh,2022-07-08,2022-07-07,2022-10-01,,,,,,,
,,,,,,,,,,,,,,,,,,,,,,,,,,
3172391943,8197101,Rebecca,Ostler,89311810,Jordan,Otte,89311810,Jordan,Otte,10250868516,,AMERITAS,PrimeStar® Total,200,,dvh,2022-07-08,2022-07-06,2022-07-09,,,,,,,
,,,,,,,,,,,,,,,,,,,,,,,,,,
3172287806,12404951,Valjean,Palm,89311810,Jordan,Otte,89311810,Jordan,Otte,00250791508,,AMERITAS,PrimeStar® Value,200,,dvh,2022-03-09,2022-03-09,2022-04-01,,,,,,,
,,,,,,,,,,,,,,,,,,,,,,,,,,
3172287834,12440451,Jordan,Palm,89311810,Jordan,Otte,89311810,Jordan,Otte,00250793247,,AMERITAS,PrimeStar® Value,200,,dvh,2022-03-11,2022-03-10,2022-04-01,,,,,,,
,,,,,,,,,,,,,,,,,,,,,,,,,,
3172287898,19596701,James,Palomba,89311810,Jordan,Otte,89311810,Jordan,Otte,10250878934,,AMERITAS,,200,,dvh,2022-07-27,2022-07-27,2022-10-01,,,,,,,
,,,,,,,,,,,,,,,,,,,,,,,,,,
3172287894,19584601,David,Pannell,89311810,Jordan,Otte,89311810,Jordan,Otte,NA,,AMERITAS,,200,,dvh,2022-08-04,2022-08-03,2022-09-01,,,,,,,False
3621665829,19584601,David,Pannell,89311810,Jordan,Otte,89311810,Jordan,Otte,Pending Member ID,,AMERITAS,PrimeStar® Value,200,,dvh,2022-10-31,2022-10-31,2022-12-01,,,,,,,False
,,,,,,,,,,,,,,,,,,,,,,,,,,
3172231214,10965301,Michele,Poinsett,89311810,Jordan,Otte,89311810,Jordan,Otte,10250894962,,AMERITAS,PrimeStar® Total,200,,dvh,2022-08-22,2022-08-19,2022-11-01,,,,,,,
,,,,,,,,,,,,,,,,,,,,,,,,,,
3172322429,9221351,Cinde,Porter,89311810,Jordan,Otte,89311810,Jordan,Otte,002507033644,,AMERITAS,PrimeStar® Value,200,,dvh,2021-12-21,,2022-01-01,,,,,,,
,,,,,,,,,,,,,,,,,,,,,,,,,,
3172197748,6647601,Charlotte,Riddle,89311810,Jordan,Otte,89311810,Jordan,Otte,10250659169,,AMERITAS,PrimeStar® Access,200,,dvh,2021-10-08,,2021-11-01,,,,,,,
,,,,,,,,,,,,,,,,,,,,,,,,,,
3172252079,5701001,Randall,Russell,89311810,Jordan,Otte,89311810,Jordan,Otte,n/a	,,AMERITAS,,200,,dvh,2021-09-21,,2021-10-01,,,,,,,False
,,,,,,,,,,,,,,,,,,,,,,,,,,
3172252064,6211401,Peggy,Sanders,89311810,Jordan,Otte,89311810,Jordan,Otte,00250649348,,AMERITAS,PrimeStar® Access,200,,dvh,2021-09-24,,2021-10-01,,,,,,,
,,,,,,,,,,,,,,,,,,,,,,,,,,
3172361991,13537351,Dolores,Schmitt,89311810,Jordan,Otte,89311810,Jordan,Otte,10250831495,,AMERITAS,PrimeStar® Access,200,,dvh,2022-05-06,2022-05-05,2022-07-01,,,,,,,
,,,,,,,,,,,,,,,,,,,,,,,,,,
3172310965,17720201,Lucille,Schoales,89311810,Jordan,Otte,89311810,Jordan,Otte,NA,,AMERITAS,,200,,dvh,2022-08-26,2022-08-23,2022-09-01,,,,,,,False
,,,,,,,,,,,,,,,,,,,,,,,,,,
3172231073,11255651,Herb,Schwarz,89311810,Jordan,Otte,89311810,Jordan,Otte,10250831491,,AMERITAS,PrimeStar® Access,200,,dvh,2022-05-06,2022-05-05,2022-06-01,,,,,,,
,,,,,,,,,,,,,,,,,,,,,,,,,,
3172287874,19761601,Susan,Shea,89311810,Jordan,Otte,89311810,Jordan,Otte,NA,,AMERITAS,,200,,dvh,2022-08-04,2022-08-01,2022-09-01,,,,,,,False
,,,,,,,,,,,,,,,,,,,,,,,,,,
3172361794,20420751,Russell Dean,Smith,89311810,Jordan,Otte,89311810,Jordan,Otte,10250892137,,AMERITAS,PrimeStar® Total,200,,dvh,2022-08-17,2022-08-17,2022-11-01,,,,,,,
,,,,,,,,,,,,,,,,,,,,,,,,,,
3172392014,11588651,Deborah,Smith,89311810,Jordan,Otte,89311810,Jordan,Otte,10250831387,,AMERITAS,PrimeStar® Value,200,,dvh,2022-05-06,2022-05-03,2022-05-07,,,,,,,
,,,,,,,,,,,,,,,,,,,,,,,,,,
3172392016,11668301,Charles,Smith,89311810,Jordan,Otte,89311810,Jordan,Otte,10250778015,,AMERITAS,PrimeStar® Value,200,,dvh,2022-02-17,2022-02-17,2022-05-01,,,,,,,
,,,,,,,,,,,,,,,,,,,,,,,,,,
3172322404,9097751,Sheena,Thomson,89311810,Jordan,Otte,89311810,Jordan,Otte,10250813741	,,AMERITAS,PrimeStar® Total,200,,dvh,2022-04-11,2022-04-04,2022-06-01,,,,,,,
,,,,,,,,,,,,,,,,,,,,,,,,,,
3172392008,11578801,Iris,Tripp,89311810,Jordan,Otte,89311810,Jordan,Otte,10250809331 ,,AMERITAS,PrimeStar® Total,200,,dvh,2022-04-04,2022-04-01,2022-07-01,,,,,,,
,,,,,,,,,,,,,,,,,,,,,,,,,,
3172219023,15041851,Jean,Tucker,89311810,Jordan,Otte,89311810,Jordan,Otte,10250829719,,AMERITAS,PrimeStar® Total,200,,dvh,2022-05-04,2022-05-04,2022-06-01,,,,,,,
,,,,,,,,,,,,,,,,,,,,,,,,,,
3172391967,8150451,Judy,Vines,89311810,Jordan,Otte,89311810,Jordan,Otte,102507-53173,,AMERITAS,PrimeStar® Value,200,,dvh,2022-01-14,2022-01-11,2022-02-01,,,,,,,
,,,,,,,,,,,,,,,,,,,,,,,,,,
3172219196,21137401,German,Vivas,89311810,Jordan,Otte,89311810,Jordan,Otte,10250898466,,AMERITAS,PrimeStar® Total,200,,dvh,2022-08-26,2022-08-26,2022-09-01,,,,,,,
,,,,,,,,,,,,,,,,,,,,,,,,,,
3172361836,20439551,Debra,Webb,89311810,Jordan,Otte,89311810,Jordan,Otte,10250891359,,AMERITAS,PrimeStar® Total,200,,dvh,2022-08-16,2022-08-08,2022-09-01,,,,,,,
,,,,,,,,,,,,,,,,,,,,,,,,,,
3172362010,13258801,Thomas,Williams,89311810,Jordan,Otte,89311810,Jordan,Otte,10250847480,,AMERITAS,PrimeStar® Total,200,,dvh,2022-06-02,2022-06-01,2022-09-01,,,,,,,
,,,,,,,,,,,,,,,,,,,,,,,,,,
3172391990,11968101,Frederick,Wilson,89311810,Jordan,Otte,89311810,Jordan,Otte,00250786531,,AMERITAS,PrimeStar® Total,200,,dvh,2022-03-02,2022-03-02,2022-04-01,,,,,,,
,,,,,,,,,,,,,,,,,,,,,,,,,,
