id,originally_associated_contact_id,firstname,lastname,agent_originating,agent_firstname,agent_lastname,hubspot_owner_id,hs_owner_firstname,hs_owner_lastname,policy_number,commission_id,carrier,plan_name,status,gi___not_commissionable,plan_type,date_actual_submission,date_requested_submission,date_effective,date_cancel_notification,date_cancel_actual,notes_misc_cancel,first_date_effective,active_policy,residual,grey
3620007451,24071751,Kerry,Ahlstrom,229799739,Latesa,Pasley,229799739,Latesa,Pasley,Pending Member ID,Pending Member ID,AETNA ACCENDO,G,340,Commissionable - Need to Review,msp,2022-10-31,2022-10-31,2023-01-01,,,,2023-01-01,False,False,False
,,,,,,,,,,,,,,,,,,,,,,,,,,
3270184810,22946401,Brent,Beling,229799739,Latesa,Pasley,229799739,Latesa,Pasley,3357256266,,AARP / UHICA,G,200,,msp,2022-10-18,2022-10-14,2023-01-01,,,,2023-01-01,True,,False
3173243320,22946401,Brent,Beling,229799739,Latesa,Pasley,229799739,Latesa,Pasley,3357256266,A03626952,AARP,G,510,,msp,2022-10-07,2022-10-06,2023-01-01,,2022-12-31,,2023-01-01,True,False,
,,,,,,,,,,,,,,,,,,,,,,,,,,
3774669863,24361501,Ronald R,Binding,229799739,Latesa,Pasley,229799739,Latesa,Pasley,3187397009,,AARP,G,200,,msp,2022-11-09,2022-11-08,2022-12-01,,,,2022-12-01,True,False,False
,,,,,,,,,,,,,,,,,,,,,,,,,,
3173243695,22448801,Lela,Boyd,229799739,Latesa,Pasley,229799739,Latesa,Pasley,3384835660,A03620206,AARP,G,200,,msp,2022-09-26,2022-09-26,2022-10-01,,2022-10-01,,2022-10-01,True,False,
,,,,,,,,,,,,,,,,,,,,,,,,,,
3173259172,22636001,Keith,Boyd,229799739,Latesa,Pasley,229799739,Latesa,Pasley,3384835660,A03620271,AARP,G,200,,msp,2022-09-26,2022-09-26,2022-10-01,,,,2022-10-01,True,False,
,,,,,,,,,,,,,,,,,,,,,,,,,,
3173177889,22735701,Simon,Boyes,229799739,Latesa,Pasley,229799739,Latesa,Pasley,3233676687,A03622595,AARP,G,200,,msp,2022-09-29,2022-09-29,2023-01-01,,,,2023-01-01,True,False,
,,,,,,,,,,,,,,,,,,,,,,,,,,
3793873048,24355651,Richard,Brock,229799739,Latesa,Pasley,229799739,Latesa,Pasley,3517333112,,AARP,G,200,,msp,2022-11-09,2022-11-09,2022-12-01,,,,2022-12-01,True,False,False
,,,,,,,,,,,,,,,,,,,,,,,,,,
3173259316,22512451,Olga,Castillo,229799739,Latesa,Pasley,229799739,Latesa,Pasley,3457293078,A03622563,AARP,G,200,,msp,2022-09-29,2022-09-29,2023-01-01,,,,2023-01-01,True,False,
,,,,,,,,,,,,,,,,,,,,,,,,,,
3204821333,23202701,Linda,Childs,229799739,Latesa,Pasley,229799739,Latesa,Pasley,ACC6693201,ACC6693201,AETNA ACCENDO,G,200,,msp,2022-10-11,2022-10-11,2023-02-01,,,,2023-02-01,True,False,
,,,,,,,,,,,,,,,,,,,,,,,,,,
3173243395,22992051,Nancy,Cockerham,229799739,Latesa,Pasley,229799739,Latesa,Pasley,AHC6657201,AHC6657201,AETNA,G,200,,msp,2022-10-07,2022-10-05,2022-11-01,,,,2022-11-01,True,False,
,,,,,,,,,,,,,,,,,,,,,,,,,,
3485319783,23588001,Billy,Damon,229799739,Latesa,Pasley,229799739,Latesa,Pasley,3516061300,,AARP,G,200,,msp,2022-10-24,2022-10-24,2023-01-01,,,,2023-01-01,True,False,False
,,,,,,,,,,,,,,,,,,,,,,,,,,
3756258186,24167101,Jeannette,Doyle,229799739,Latesa,Pasley,229799739,Latesa,Pasley,ACC6710463,ACC6710463,AETNA ACCENDO,G,200,,msp,2022-11-07,2022-11-07,2023-01-01,,,,2023-01-01,True,False,
,,,,,,,,,,,,,,,,,,,,,,,,,,
3385971078,23163901,Kenneth,Dugas,229799739,Latesa,Pasley,229799739,Latesa,Pasley,ACC6698967,ACC6698967,AETNA ACCENDO,G,200,,msp,2022-10-20,2022-10-19,2022-11-01,,,,2022-11-01,True,False,
,,,,,,,,,,,,,,,,,,,,,,,,,,
3173177947,22751401,Corey,Eisenberg,229799739,Latesa,Pasley,229799739,Latesa,Pasley,3514844517,A03623968,AARP,G,200,,msp,2022-10-03,2022-10-03,2022-11-01,,,,2022-11-01,True,False,
,,,,,,,,,,,,,,,,,,,,,,,,,,
3173259321,22466351,Debra,Eskie,229799739,Latesa,Pasley,229799739,Latesa,Pasley,3514867534,,AARP,G,200,,msp,2022-11-03,2022-09-30,2023-04-01,,,,2023-04-01,True,False,False
,,,,,,,,,,,,,,,,,,,,,,,,,,
3718517535,24087301,Terri,Franklin,229799739,Latesa,Pasley,229799739,Latesa,Pasley,3517096453,,AARP,G,200,,msp,2022-11-07,2022-11-05,2023-04-01,,,,2023-04-01,True,False,False
,,,,,,,,,,,,,,,,,,,,,,,,,,
3173259187,22517201,Anthony M,Gorruso,229799739,Latesa,Pasley,229799739,Latesa,Pasley,3514747769,A03621754,AARP,G,200,,msp,2022-09-28,2022-09-28,2022-10-01,,,,2022-10-01,True,False,
,,,,,,,,,,,,,,,,,,,,,,,,,,
3173259270,22683101,Sondra,Greenwell,229799739,Latesa,Pasley,229799739,Latesa,Pasley,3151841321,A03621125,AARP,G,200,,msp,2022-09-27,2022-09-27,2022-10-01,,,,2022-10-01,True,False,
,,,,,,,,,,,,,,,,,,,,,,,,,,
3173243402,23092551,Jerry,Hall,229799739,Latesa,Pasley,229799739,Latesa,Pasley,ACC6692302,ACC6692302,AETNA ACCENDO,G,200,,msp,2022-10-10,2022-10-07,2023-01-01,,,,2023-01-01,True,False,
,,,,,,,,,,,,,,,,,,,,,,,,,,
3484940374,23532101,Charlotte,Henderson,229799739,Latesa,Pasley,229799739,Latesa,Pasley,CLI6908459,CLI6908459,AETNA,G,200,,msp,2022-10-25,2022-10-24,2023-01-01,,,,2023-01-01,True,False,
,,,,,,,,,,,,,,,,,,,,,,,,,,
3702983560,23366351,James A,Hill III,229799739,Latesa,Pasley,229799739,Latesa,Pasley,3488682893,,AARP,G,200,,msp,2022-11-04,2022-11-04,2023-01-01,,,,2023-01-01,True,False,False
,,,,,,,,,,,,,,,,,,,,,,,,,,
3333696916,23301401,Debra,Howsare,229799739,Latesa,Pasley,229799739,Latesa,Pasley,ACC6697245,ACC6697245,AETNA ACCENDO,G,200,,msp,2022-10-18,2022-10-17,2023-01-01,,,,2023-01-01,True,False,
,,,,,,,,,,,,,,,,,,,,,,,,,,
3333696932,23534601,Kirk,Howsare,229799739,Latesa,Pasley,229799739,Latesa,Pasley,ACC6697246,ACC6697246,AETNA ACCENDO,G,200,,msp,2022-10-18,2022-10-17,2023-01-01,,,,2023-01-01,True,False,
,,,,,,,,,,,,,,,,,,,,,,,,,,
3173177954,22934201,James,Johnson,229799739,Latesa,Pasley,229799739,Latesa,Pasley,3309588303,,AARP,G,200,,msp,2022-10-05,2022-10-04,2023-02-01,,,,2023-02-01,True,False,False
,,,,,,,,,,,,,,,,,,,,,,,,,,
3754836561,24212151,Rex,Johnston,229799739,Latesa,Pasley,229799739,Latesa,Pasley,AHC6665696,AHC6665696,AETNA,G,200,,msp,2022-11-07,2022-11-07,2023-02-01,,,,2023-02-01,True,False,
,,,,,,,,,,,,,,,,,,,,,,,,,,
3635643702,23659301,Carolyn,Ketchie,229799739,Latesa,Pasley,229799739,Latesa,Pasley,AHC6663925,AHC6663925,AETNA,G,200,,msp,2022-11-01,2022-11-01,2022-12-01,,,,2022-12-01,True,False,
,,,,,,,,,,,,,,,,,,,,,,,,,,
3168472421,5386801,Edward,MCGuire,76357008,Inactive,Agent,229799739,Latesa,Pasley,905396419,,AARP/UHC,AARP Medicare Advantage Choice Plan 2 (PPO),200,,map,2021-09-09,,2021-10-01,,,,2021-10-01,True,True,
3191933362,5386801,Edward,MCGuire,229799739,Latesa,Pasley,229799739,Latesa,Pasley,AHL6311119,AHL6311119,AETNA,G,200,,msp,2022-10-04,,2023-01-01,,,,2023-01-01,True,False,
,,,,,,,,,,,,,,,,,,,,,,,,,,
3522477969,23881751,Noel,Martinez,229799739,Latesa,Pasley,229799739,Latesa,Pasley,3147458156,,AARP / UHICA,G,200,,msp,2022-10-26,2022-10-26,2023-01-01,,,,2023-01-01,True,False,False
,,,,,,,,,,,,,,,,,,,,,,,,,,
3522478009,23837751,Janice,Martinez,229799739,Latesa,Pasley,229799739,Latesa,Pasley,3147458156,,AARP / UHICA,G,200,,msp,2022-10-27,2022-10-26,2023-01-01,,,,2023-01-01,True,False,False
,,,,,,,,,,,,,,,,,,,,,,,,,,
3637250660,23571751,Clay,Mayo,229799739,Latesa,Pasley,229799739,Latesa,Pasley,AHC6663825,AHC6663825,AETNA,G,200,,msp,2022-11-01,2022-11-01,2023-01-01,,,,2023-01-01,True,False,
,,,,,,,,,,,,,,,,,,,,,,,,,,
3173177893,22837751,Gary,McAdams,229799739,Latesa,Pasley,229799739,Latesa,Pasley,AHC6657200,AHC6657200,AETNA,G,200,,msp,2022-10-07,2022-10-05,2022-12-01,,,,2022-12-01,True,False,
,,,,,,,,,,,,,,,,,,,,,,,,,,
3718156352,24001001,Mary,McGarvey,229799739,Latesa,Pasley,229799739,Latesa,Pasley,ACC6710417,ACC6710417,AETNA ACCENDO,G,200,,msp,2022-11-07,2022-11-05,2023-03-01,,,,2023-03-01,True,False,
,,,,,,,,,,,,,,,,,,,,,,,,,,
3545755199,23944151,Thomas,McSweeney,229799739,Latesa,Pasley,229799739,Latesa,Pasley,3434589697,,AARP,M1A,200,,msp,2022-10-27,2022-10-27,2023-01-01,,,,2023-01-01,True,False,False
,,,,,,,,,,,,,,,,,,,,,,,,,,
3546979478,22574001,Pamela,McSweeney,229799739,Latesa,Pasley,229799739,Latesa,Pasley,3434589697,,AARP,M1A,200,,msp,2022-10-30,2022-10-27,2023-01-01,,,,2023-01-01,True,False,False
,,,,,,,,,,,,,,,,,,,,,,,,,,
3503066296,22944851,Ronald,Meadley,229799739,Latesa,Pasley,229799739,Latesa,Pasley,AHC6661740,AHC6661740,AETNA,G,200,,msp,2022-10-25,2022-10-25,2022-11-01,,,,2022-11-01,True,False,
,,,,,,,,,,,,,,,,,,,,,,,,,,
3701724465,23976051,Robert,Mermer,229799739,Latesa,Pasley,229799739,Latesa,Pasley,3050228927,,AARP,F,500,,msp,2022-11-04,2022-11-04,2023-01-01,2022-11-08,2022-12-31,,2023-01-01,False,False,False
,,,,,,,,,,,,,,,,,,,,,,,,,,
3209789218,22980751,Michael,Mjehovich,229799739,Latesa,Pasley,229799739,Latesa,Pasley,3355438098,,AARP,G,200,,msp,2022-10-12,2022-10-11,2023-01-01,,,,2023-01-01,True,False,False
,,,,,,,,,,,,,,,,,,,,,,,,,,
3775830081,24257101,Vicki,Music,229799739,Latesa,Pasley,229799739,Latesa,Pasley,3348119466,,AARP,G,200,,msp,2022-11-08,2022-11-08,2023-01-01,,,,2023-01-01,True,False,False
,,,,,,,,,,,,,,,,,,,,,,,,,,
3701371184,24115451,Sheree,Norton,229799739,Latesa,Pasley,229799739,Latesa,Pasley,3301494039,,AARP,G,200,,msp,2022-11-04,2022-11-04,2023-01-01,,,,2023-01-01,True,False,False
,,,,,,,,,,,,,,,,,,,,,,,,,,
3615454298,23810001,Mary D,Nunn,229799739,Latesa,Pasley,229799739,Latesa,Pasley,CLI6912257,CLI6912257,AETNA,G,200,,msp,2022-10-31,2022-10-31,2022-11-01,,,,2022-11-01,True,False,
,,,,,,,,,,,,,,,,,,,,,,,,,,
3439693424,13631451,Yves,Paul,229799739,Latesa,Pasley,229799739,Latesa,Pasley,3516229352,,AARP,G,200,,msp,2022-10-24,2022-10-22,2022-12-01,,,,2022-12-01,True,False,False
,,,,,,,,,,,,,,,,,,,,,,,,,,
3505739819,23644201,Doris,Pelchat,229799739,Latesa,Pasley,229799739,Latesa,Pasley,3127243529,,AARP,G,200,,msp,2022-10-27,2022-10-25,2023-01-01,,,,2023-01-01,True,False,False
,,,,,,,,,,,,,,,,,,,,,,,,,,
3505739823,23860151,Felix,Pelchat,229799739,Latesa,Pasley,229799739,Latesa,Pasley,3127243529,,AARP,G,200,,msp,2022-10-27,2022-10-25,2023-01-01,,,,2023-01-01,True,False,False
,,,,,,,,,,,,,,,,,,,,,,,,,,
3380225341,22555701,Kenneth,Perpich,229799739,Latesa,Pasley,229799739,Latesa,Pasley,3513512362,,AARP,G,200,,msp,2022-10-19,2022-10-19,2023-01-01,,,,2023-01-01,True,False,False
,,,,,,,,,,,,,,,,,,,,,,,,,,
3173243417,23043951,Roy,Phillips,229799739,Latesa,Pasley,229799739,Latesa,Pasley,ACC6691684,ACC6691684,AETNA ACCENDO,G,200,,msp,2022-10-07,2022-10-06,2022-11-01,,,,2022-11-01,True,False,
,,,,,,,,,,,,,,,,,,,,,,,,,,
3355434422,23116251,Hobart,Powell Jr,229799739,Latesa,Pasley,229799739,Latesa,Pasley,3515985087,,AARP,G,200,,msp,2022-10-18,2022-10-18,2022-12-01,,,,2022-12-01,True,False,False
,,,,,,,,,,,,,,,,,,,,,,,,,,
3173177911,22899551,Harriet,Reese,229799739,Latesa,Pasley,229799739,Latesa,Pasley,3144350356,A03625945,AARP,G,200,,msp,2022-10-06,2022-10-05,2022-11-01,,,,2022-11-01,True,False,
,,,,,,,,,,,,,,,,,,,,,,,,,,
3485319732,23647351,Carl,Rivera,229799739,Latesa,Pasley,229799739,Latesa,Pasley,3296696309,,AARP,G,200,,msp,2022-10-24,2022-10-24,2023-01-01,,,,2023-01-01,True,False,False
,,,,,,,,,,,,,,,,,,,,,,,,,,
3620007305,24072751,Julia,Ryan,229799739,Latesa,Pasley,229799739,Latesa,Pasley,Pending Member ID,Pending Member ID,AETNA ACCENDO,G,340,Commissionable - Need to Review,msp,2022-10-31,2022-10-31,2023-01-01,,,,2023-01-01,False,False,False
,,,,,,,,,,,,,,,,,,,,,,,,,,
3617615708,23581401,William,Schafer,229799739,Latesa,Pasley,229799739,Latesa,Pasley,AHC6663646,AHC6663646,AETNA,G,200,,msp,2022-10-31,2022-10-31,2023-01-01,,,,2023-01-01,True,False,
,,,,,,,,,,,,,,,,,,,,,,,,,,
3297098573,23146601,Randolph,Stroud,229799739,Latesa,Pasley,229799739,Latesa,Pasley,3515848806,,AARP / UHICA,G,200,,msp,2022-10-17,2022-10-15,2023-01-01,,,,2023-01-01,True,False,False
,,,,,,,,,,,,,,,,,,,,,,,,,,
3173243315,22950701,Richard,Sward,229799739,Latesa,Pasley,229799739,Latesa,Pasley,AHC6657203,AHC6657203,AETNA,G,200,,msp,2022-10-07,2022-10-06,2022-12-01,,,,2022-12-01,True,False,
,,,,,,,,,,,,,,,,,,,,,,,,,,
3562559255,23523151,Jill,Swetnam,229799739,Latesa,Pasley,229799739,Latesa,Pasley,3211851807,,AARP,G,200,,msp,2022-10-31,2022-10-28,2022-11-01,,,,2022-11-01,True,False,False
3419396108,23523151,Jill,Swetnam,229799739,Latesa,Pasley,229799739,Latesa,Pasley,124320543,,AARP/UHC,UnitedHealthcare Dual Complete® (HMO D-SNP),200,,map,2022-10-21,2022-10-21,2022-11-01,,,,2022-11-01,True,False,
,,,,,,,,,,,,,,,,,,,,,,,,,,
3687488129,23855001,Christy,Swift,229799739,Latesa,Pasley,229799739,Latesa,Pasley,3516305764,,AARP,G,200,,msp,2022-11-04,2022-11-03,2023-02-01,,,,2023-02-01,True,False,False
,,,,,,,,,,,,,,,,,,,,,,,,,,
3681081439,24085301,Edgar,Tharpe,229799739,Latesa,Pasley,229799739,Latesa,Pasley,3516960857,,AARP / UHICA,G,330,,msp,2022-11-03,2022-11-03,2022-12-01,,,,2022-12-01,False,False,False
,,,,,,,,,,,,,,,,,,,,,,,,,,
3778264486,24199601,Laura,Tharpe,229799739,Latesa,Pasley,229799739,Latesa,Pasley,3516960857,,AARP / UHICA,G,200,,msp,2022-11-08,2022-11-08,2022-12-01,,,,2022-12-01,True,False,False
,,,,,,,,,,,,,,,,,,,,,,,,,,
3254075452,23111301,Brenda,Traut,229799739,Latesa,Pasley,229799739,Latesa,Pasley,ACC6695871,ACC6695871,AETNA ACCENDO,G,200,,msp,2022-10-15,2022-10-13,2022-11-01,,,,2022-11-01,True,False,
,,,,,,,,,,,,,,,,,,,,,,,,,,
3254145629,23355551,Dale,Traut,229799739,Latesa,Pasley,229799739,Latesa,Pasley,ACC6695034,ACC6695034,AETNA ACCENDO,G,200,,msp,2022-10-13,2022-10-13,2023-01-01,,,,2023-01-01,True,False,
,,,,,,,,,,,,,,,,,,,,,,,,,,
3179930391,22728451,Valarie,Turner,229799739,Latesa,Pasley,229799739,Latesa,Pasley,Pending Member ID,,AARP,G,200,,msp,2022-10-10,2022-10-10,2022-11-01,,,,2022-11-01,True,False,False
,,,,,,,,,,,,,,,,,,,,,,,,,,
3835294112,24509951,Gary,Weaver,229799739,Latesa,Pasley,229799739,Latesa,Pasley,3498311368,,AARP,G,200,,msp,2022-11-14,2022-11-11,2023-02-01,,,,2023-02-01,True,False,False
,,,,,,,,,,,,,,,,,,,,,,,,,,
3376711577,23331851,Sharon,Weiderhold,229799739,Latesa,Pasley,229799739,Latesa,Pasley,3515893000,,AARP,G,510,,msp,2022-10-19,2022-10-19,2023-01-01,,2022-10-19,Never fully submitted bc signature was sent as Voice Sig but the client did not complete so another app was submitted to get electronic sig,2023-01-01,True,,False
3441411215,23331851,Sharon,Weiderhold,229799739,Latesa,Pasley,229799739,Latesa,Pasley,3515893000 ,,AARP,G,200,,msp,2022-10-22,2022-10-22,2023-01-01,,,,2023-01-01,True,False,False
,,,,,,,,,,,,,,,,,,,,,,,,,,
3376711591,23120451,George,Weiderhold,229799739,Latesa,Pasley,229799739,Latesa,Pasley,3515893000 ,,AARP,G,510,,msp,2022-10-19,2022-10-19,2023-01-01,,2022-10-19,Never fully submitted bc signature was sent as Voice Signature but client never completed so another app was submitted to redo signature ,2023-01-01,True,,False
3439693232,23120451,George,Weiderhold,229799739,Latesa,Pasley,229799739,Latesa,Pasley,3515893000 ,,AARP,G,200,,msp,2022-10-22,2022-10-22,2023-01-01,,,,2023-01-01,True,False,False
,,,,,,,,,,,,,,,,,,,,,,,,,,
3425403917,23663201,Rochelle,Williams,229799739,Latesa,Pasley,229799739,Latesa,Pasley,AHL6312102,AHL6312102,AETNA,G,200,,msp,2022-10-24,2022-10-21,2023-01-01,,,,2023-01-01,True,False,
,,,,,,,,,,,,,,,,,,,,,,,,,,
3425403949,23698451,Eland,Williams,229799739,Latesa,Pasley,229799739,Latesa,Pasley,AHL6312101,AHL6312101,AETNA,G,200,,msp,2022-10-24,2022-10-21,2023-01-01,,,,2023-01-01,True,False,
,,,,,,,,,,,,,,,,,,,,,,,,,,
3186785204,23109101,David,Box,229799739,Latesa,Pasley,229799739,Latesa,Pasley,H73523338,,HUMANA,Humana USAA Honor with Rx (PPO) ,200,,map,2022-10-17,2022-10-15,2023-01-01,,,,2023-01-01,True,False,False
,,,,,,,,,,,,,,,,,,,,,,,,,,
3167055753,5526601,Kim,Boyer-Curtis,89321120,Matthew,Duffey,229799739,Latesa,Pasley,985445035,,AARP/UHC,AARP Medicare Advantage Choice (PPO),500,,map,2022-04-28,2022-04-25,2022-06-01,,,,2022-06-01,False,False,
,,,,,,,,,,,,,,,,,,,,,,,,,,
3719704103,24246001,Valerie,Broxton,229799739,Latesa,Pasley,229799739,Latesa,Pasley,Pending Member ID,,HUMANA,HumanaChoice ,110,,map,2022-11-07,2022-11-05,2023-01-01,,,,2023-01-01,False,False,
,,,,,,,,,,,,,,,,,,,,,,,,,,
3719704105,24275901,Roger,Broxton,229799739,Latesa,Pasley,229799739,Latesa,Pasley,Pending Member ID,,HUMANA,Humana Choice,110,,map,2022-11-07,2022-11-05,2023-01-01,,,,2023-01-01,False,False,
,,,,,,,,,,,,,,,,,,,,,,,,,,
3657745205,23510601,ENRIQUE,DOMINGUEZ,229799739,Latesa,Pasley,229799739,Latesa,Pasley,101581465900,,AETNA, Aetna Medicare Select (HMO),200,,map,2022-11-02,2022-11-02,2023-01-01,,,,2023-01-01,True,False,
,,,,,,,,,,,,,,,,,,,,,,,,,,
3439693618,23692251,Richard,Davis,229799739,Latesa,Pasley,229799739,Latesa,Pasley,35572111,,WELLCARE,Wellcare Giveback Open (PPO),200,,map,2022-10-24,2022-10-22,2022-11-01,,,,2022-11-01,True,False,
,,,,,,,,,,,,,,,,,,,,,,,,,,
3793872685,24108701,Kellie,Dunlap,229799739,Latesa,Pasley,229799739,Latesa,Pasley,Pending Member ID,,AETNA,Aetna Medicare Premier (PPO),110,,map,2022-11-10,2022-11-09,2023-01-01,,,,2023-01-01,False,False,
,,,,,,,,,,,,,,,,,,,,,,,,,,
3815028001,22665001,Andrew P,Gannon,229799739,Latesa,Pasley,229799739,Latesa,Pasley,Pending Member ID,,AARP/UHC,UnitedHealthcare Dual Complete® Choice (PPO D-SNP),110,,map,2022-11-11,2022-11-10,2023-01-01,,,,2023-01-01,False,False,
,,,,,,,,,,,,,,,,,,,,,,,,,,
3561686571,23349751,George,Hunter,229799739,Latesa,Pasley,229799739,Latesa,Pasley,H77105542,,HUMANA,Humana Honor (PPO) ,200,,map,2022-10-28,2022-10-28,2023-01-01,,,,2023-01-01,True,False,False
,,,,,,,,,,,,,,,,,,,,,,,,,,
3792405107,23902401,Katherine,Isom,229799739,Latesa,Pasley,229799739,Latesa,Pasley,Pending Member ID,,AARP/UHC,AARP® Medicare Advantage Choice (PPO),110,,map,2022-11-09,2022-11-09,2022-12-01,,,,2022-12-01,False,False,
,,,,,,,,,,,,,,,,,,,,,,,,,,
3424092951,22895401,Bernard,Jackson,229799739,Latesa,Pasley,229799739,Latesa,Pasley,994268547,,AARP/UHC,AARP® Medicare Advantage Patriot (PPO),200,,map,2022-10-24,2022-10-21,2022-11-01,,,,2022-11-01,True,False,
,,,,,,,,,,,,,,,,,,,,,,,,,,
3249667330,23338451,Cordelia,Mills,229799739,Latesa,Pasley,229799739,Latesa,Pasley,101563784800,,AETNA, Aetna Medicare Eagle Plan (PPO),200,,map,2022-10-17,2022-10-15,2023-01-01,,,,2023-01-01,True,False,
,,,,,,,,,,,,,,,,,,,,,,,,,,
3701643271,23980201,Walter P,Moore,229799739,Latesa,Pasley,229799739,Latesa,Pasley,Pending Member ID,,AETNA, Aetna Medicare Choice Plan (PPO),110,,map,2022-11-04,2022-11-04,2023-01-01,,,,2023-01-01,False,False,
,,,,,,,,,,,,,,,,,,,,,,,,,,
3328682259,23414401,Adesegun,Owolabi,229799739,Latesa,Pasley,229799739,Latesa,Pasley,H75542436,,HUMANA,Humana Gold Plus ,200,,map,2022-10-18,2022-10-17,2023-01-01,,,,2023-01-01,True,False,False
,,,,,,,,,,,,,,,,,,,,,,,,,,
3642329899,24116001,Gisela,Page,229799739,Latesa,Pasley,229799739,Latesa,Pasley,Pending Member ID,,HUMANA,HumanaChoice,110,,map,2022-11-07,2022-11-01,2023-01-01,,,,2023-01-01,False,False,
,,,,,,,,,,,,,,,,,,,,,,,,,,
3504878262,23846051,Jay,Page,229799739,Latesa,Pasley,229799739,Latesa,Pasley,124418098,,AARP/UHC,UnitedHealthcare Dual Complete® LP1 (HMO D-SNP),200,,map,2022-10-26,2022-10-25,2022-12-01,,,,2022-12-01,True,False,
,,,,,,,,,,,,,,,,,,,,,,,,,,
3249778306,21535901,Clifford,Patterson ,229799739,Latesa,Pasley,229799739,Latesa,Pasley,101563933100,,AETNA, Aetna Medicare Eagle Plan (PPO) ,200,,map,2022-10-17,2022-10-15,2023-01-01,,,,2023-01-01,True,False,
,,,,,,,,,,,,,,,,,,,,,,,,,,
3187489620,23218451,Beverly,Phillips,229799739,Latesa,Pasley,229799739,Latesa,Pasley,123471518,,AARP/UHC,UnitedHealthcare Dual Complete® Choice (PPO D-SNP),200,,map,2022-10-18,2022-10-17,2023-01-01,,,,2023-01-01,True,False,
,,,,,,,,,,,,,,,,,,,,,,,,,,
3774968156,24395851,A G,Snowhite,229799739,Latesa,Pasley,229799739,Latesa,Pasley,Pending Member ID,,HUMANA,Humana Honor (PPO),110,,map,2022-11-08,2022-11-08,2023-01-01,,,,2023-01-01,False,False,
,,,,,,,,,,,,,,,,,,,,,,,,,,
3251732230,23030351,Deborah,Spoonts,229799739,Latesa,Pasley,229799739,Latesa,Pasley,Pending Member ID,,HUMANA,Humana Honor (PPO),500,,map,,2022-10-28,2023-01-01,,,,2023-01-01,False,False,False
,,,,,,,,,,,,,,,,,,,,,,,,,,
3502160005,23778051,Linda,Vindiola,229799739,Latesa,Pasley,229799739,Latesa,Pasley,H60766525,,HUMANA,Humana Gold Plus ,200,,map,2022-10-25,2022-10-25,2023-01-01,,,,2023-01-01,True,False,False
,,,,,,,,,,,,,,,,,,,,,,,,,,
