id,originally_associated_contact_id,firstname,lastname,agent_originating,agent_firstname,agent_lastname,hubspot_owner_id,hs_owner_firstname,hs_owner_lastname,policy_number,commission_id,carrier,plan_name,status,gi___not_commissionable,plan_type,date_actual_submission,date_requested_submission,date_effective,date_cancel_notification,date_cancel_actual,notes_misc_cancel,first_date_effective,active_policy,residual,grey
3172361630,43301,Lance,Abrahamson,50183183,Rhee,Cano,50183183,Rhee,Cano,00250336809,,AMERITAS,,200,,dvh,2020-09-12,,2020-10-01,,,,,,,
,,,,,,,,,,,,,,,,,,,,,,,,,,
3408382642,23669101,Gene,Allemandi,50183183,Rhee,Cano,50183183,Rhee,Cano,Pending Member ID,,AMERITAS,PrimeStar® Total,200,,dvh,2022-10-25,2022-10-20,2023-01-01,,,,,,,False
,,,,,,,,,,,,,,,,,,,,,,,,,,
3172447111,4103051,Charles,Anderson,50183183,Rhee,Cano,50183183,Rhee,Cano,250617344,,AMERITAS,,200,,dvh,2021-08-09,,2021-09-01,,,,,,,
,,,,,,,,,,,,,,,,,,,,,,,,,,
3172391779,1542801,Sue,Applegate,50183183,Rhee,Cano,50183183,Rhee,Cano,00250548855,,AMERITAS,,200,,dvh,2021-05-18,,2021-08-01,,,,,,,
,,,,,,,,,,,,,,,,,,,,,,,,,,
3172133469,1801451,John,Battisti,50183183,Rhee,Cano,50183183,Rhee,Cano,CLI6661855,,AETNA,Advantage Plus 1000 (Non-Network),200,,dvh,2021-06-03,,2021-09-01,,,,,,,
,,,,,,,,,,,,,,,,,,,,,,,,,,
3172219004,3061801,Marcia,Berch,50183183,Rhee,Cano,50183183,Rhee,Cano,00250749801,,AMERITAS,,200,,dvh,2022-01-12,,2022-02-01,,,,,,,
,,,,,,,,,,,,,,,,,,,,,,,,,,
3172252429,21654351,Kimberly,Berkich,50183183,Rhee,Cano,50183183,Rhee,Cano,NA,,AMERITAS,PrimeStar® Total,200,,dvh,2022-10-12,2022-10-07,2023-01-01,,,,,,,False
,,,,,,,,,,,,,,,,,,,,,,,,,,
3172404279,22423501,Kenneth,Berkich,50183183,Rhee,Cano,50183183,Rhee,Cano,10250921695,,AMERITAS,PrimeStar® Total,200,,dvh,2022-10-04,2022-10-03,2023-01-01,,,,,,,
,,,,,,,,,,,,,,,,,,,,,,,,,,
3172219058,14961051,Jerry,Bingham,50183183,Rhee,Cano,50183183,Rhee,Cano,NA,,AMERITAS,PrimeStar® Access,200,,dvh,2022-11-07,2022-11-01,2023-02-01,,,,,,,False
,,,,,,,,,,,,,,,,,,,,,,,,,,
3172361648,12701,Greta,Cantrell,50183183,Rhee,Cano,50183183,Rhee,Cano,102507-90589,,AMERITAS,PrimeStar® Total,200,,dvh,2022-03-08,,2022-03-09,,,,,,,
,,,,,,,,,,,,,,,,,,,,,,,,,,
3172230977,426101,Angela,Chambers,50183183,Rhee,Cano,50183183,Rhee,Cano,10250864482,,AMERITAS,PrimeStar® Access,200,,dvh,2022-06-30,2022-07-01,2022-09-01,,,,,,,
,,,,,,,,,,,,,,,,,,,,,,,,,,
3172252240,10414151,James,Cook,50183183,Rhee,Cano,50183183,Rhee,Cano,10250907331,,AMERITAS,PrimeStar® Total,200,,dvh,2022-09-09,,2022-09-10,,,,,,,
,,,,,,,,,,,,,,,,,,,,,,,,,,
3172133414,2050951,Marilyn,Cropper,50183183,Rhee,Cano,50183183,Rhee,Cano,CLI6649946,,AETNA,,200,,dvh,2021-05-11,,2021-08-01,,,,,,,
,,,,,,,,,,,,,,,,,,,,,,,,,,
3172447264,2760001,Lewis,Davis,50183183,Rhee,Cano,50183183,Rhee,Cano,00250615240	,,AMERITAS,Advantage Plus 2000 (Non-Network),200,,dvh,2021-08-05,,2021-08-09,,,,,,,
,,,,,,,,,,,,,,,,,,,,,,,,,,
3172322410,9035651,Masresha,Demeke,50183183,Rhee,Cano,50183183,Rhee,Cano,250716086,,AMERITAS,,200,,dvh,2021-12-06,,2022-01-01,,,,,,,
,,,,,,,,,,,,,,,,,,,,,,,,,,
3172287810,12686201,Marianne,Dittmar,50183183,Rhee,Cano,50183183,Rhee,Cano,10250816474,,AMERITAS,PrimeStar® Total,200,,dvh,2022-04-14,2022-04-14,2022-06-01,,,,,,,
,,,,,,,,,,,,,,,,,,,,,,,,,,
3172287813,12534501,Frank,Dittmar,50183183,Rhee,Cano,50183183,Rhee,Cano,10250816481,,AMERITAS,PrimeStar® Total,200,,dvh,2022-04-14,2022-04-14,2022-06-01,,,,,,,
,,,,,,,,,,,,,,,,,,,,,,,,,,
3172391775,1395651,Stephen,Dorsey,50183183,Rhee,Cano,50183183,Rhee,Cano,CLI6622410,,AETNA,Advantage Plus 1000 (Non-Network),200,,dvh,2021-03-18,,2021-04-01,,,,,,,
,,,,,,,,,,,,,,,,,,,,,,,,,,
3172391728,1614451,Sarah,Duffey,50183183,Rhee,Cano,50183183,Rhee,Cano,CLI6650225,,AETNA,,200,,dvh,2021-05-11,,2021-08-01,,,,,,,
,,,,,,,,,,,,,,,,,,,,,,,,,,
3172361822,19904501,Randy,Elam,50183183,Rhee,Cano,50183183,Rhee,Cano,10250883053,,AMERITAS,PrimeStar® Total,200,,dvh,2022-08-02,2022-08-01,2022-11-01,,,,,,,
,,,,,,,,,,,,,,,,,,,,,,,,,,
3172391981,11808651,Paul,Evans,50183183,Rhee,Cano,50183183,Rhee,Cano,10250909511,,AMERITAS,PrimeStar® Total,200,,dvh,2022-09-14,2022-09-01,2022-12-01,,,,,,,
,,,,,,,,,,,,,,,,,,,,,,,,,,
3172447139,4558201,James,Fisher,50183183,Rhee,Cano,50183183,Rhee,Cano,CLI6699889,,AETNA,Advantage Plus 2000 (Non-Network),200,,dvh,2021-08-19,,2021-12-01,,,,,,,
,,,,,,,,,,,,,,,,,,,,,,,,,,
3172288002,19784351,Gregory,Gere,50183183,Rhee,Cano,50183183,Rhee,Cano,10250884453,,AMERITAS,PrimeStar® Total,200,,dvh,2022-08-04,2022-08-01,2022-11-01,,,,,,,
,,,,,,,,,,,,,,,,,,,,,,,,,,
3172447287,2358001,Cindy,Gere,50183183,Rhee,Cano,50183183,Rhee,Cano,10250824205,,AMERITAS,PrimeStar® Total,200,,dvh,2022-04-26,2022-04-25,2022-05-01,,,,,,,
,,,,,,,,,,,,,,,,,,,,,,,,,,
3172322428,9313851,Neghist,Girma,50183183,Rhee,Cano,50183183,Rhee,Cano,00250718550,,AMERITAS,,200,,dvh,2021-12-07,,2022-01-01,,,,,,,
,,,,,,,,,,,,,,,,,,,,,,,,,,
3172133500,2065951,Michelle,Granados,50183183,Rhee,Cano,50183183,Rhee,Cano,CLI6648411,,AETNA,Advantage Plus 1000 (Non-Network),200,,dvh,2021-05-07,,2021-06-01,,,,,,,
,,,,,,,,,,,,,,,,,,,,,,,,,,
3172361785,19911901,Mary K,Herron,50183183,Rhee,Cano,50183183,Rhee,Cano,10250880719,,AMERITAS,PrimeStar® Total,200,,dvh,2022-07-29,2022-07-28,2022-08-01,,,,,,,
,,,,,,,,,,,,,,,,,,,,,,,,,,
3172310664,3530851,Russell,Hunt,50183183,Rhee,Cano,50183183,Rhee,Cano,250641946,,AMERITAS,,200,,dvh,2021-09-14,,2021-10-01,,,,,,,
,,,,,,,,,,,,,,,,,,,,,,,,,,
3172288041,19324651,Lori,Irwin,50183183,Rhee,Cano,50183183,Rhee,Cano,10250891389,,AMERITAS,PrimeStar® Total,200,,dvh,2022-08-16,2022-08-09,2022-10-01,,,,,,,
,,,,,,,,,,,,,,,,,,,,,,,,,,
3172133466,2019751,Donna,Johnson,50183183,Rhee,Cano,50183183,Rhee,Cano,CLI6644221,,AETNA,,200,,dvh,2021-04-29,,2021-05-01,,,,,,,
,,,,,,,,,,,,,,,,,,,,,,,,,,
3172252164,5705951,Beverly,Jones,50183183,Rhee,Cano,50183183,Rhee,Cano,CLI0020498 (Active) / CLI6710013 (Inactive),,AETNA,Advantage Plus 1000 (Non-Network),200,,dvh,2021-09-09,,2021-10-01,,,,,,,
,,,,,,,,,,,,,,,,,,,,,,,,,,
3172447143,4225601,Randall,Keefer,50183183,Rhee,Cano,50183183,Rhee,Cano,10250656638,,AMERITAS,PrimeStar® Access,200,,dvh,2021-10-05,,2021-11-01,,,,,,,
,,,,,,,,,,,,,,,,,,,,,,,,,,
3172297277,19060801,Valerie,Larsson,50183183,Rhee,Cano,50183183,Rhee,Cano,10250909111,,AMERITAS,Advantage Plus 2000 (Non-Network),200,,dvh,2022-09-13,2022-09-09,2022-10-01,,,,,,,
,,,,,,,,,,,,,,,,,,,,,,,,,,
3172310708,541851,Joseph,Lestingi Jr,50183183,Rhee,Cano,50183183,Rhee,Cano,250445570,,AMERITAS,Advantage Plus 2000 (Non-Network),200,,dvh,2021-01-13,,2021-04-01,,,,,,,
,,,,,,,,,,,,,,,,,,,,,,,,,,
3172310713,777551,Joseph Mel,Luarca,50183183,Rhee,Cano,50183183,Rhee,Cano,CLI6606735,,AETNA,Advantage Plus 1000 (Non-Network),200,,dvh,2021-02-22,,2021-03-01,,,,,,,
,,,,,,,,,,,,,,,,,,,,,,,,,,
3172342288,7724051,David,Lup Place,50183183,Rhee,Cano,50183183,Rhee,Cano,00250674108,,AMERITAS,PrimeStar® Access,200,,dvh,2021-10-27,,2021-12-01,,,,,,,
,,,,,,,,,,,,,,,,,,,,,,,,,,
3172391752,1679251,Mary,Lupplace,50183183,Rhee,Cano,50183183,Rhee,Cano,CLI6632486,,AETNA,Advantage Plus 1000 (Non-Network),200,,dvh,2021-04-07,,2021-05-01,,,,,,,
,,,,,,,,,,,,,,,,,,,,,,,,,,
3172297245,18704101,Richard,McFarland,50183183,Rhee,Cano,50183183,Rhee,Cano,10250874308,,AMERITAS,PrimeStar® Total,200,,dvh,2022-07-19,2022-07-18,2022-09-01,,,,,,,
,,,,,,,,,,,,,,,,,,,,,,,,,,
3172133485,2112601,Geoffrey,Melkjorsen,50183183,Rhee,Cano,50183183,Rhee,Cano,10250853307,,AMERITAS,,200,,dvh,2022-06-13,,2022-07-01,,,,,,,
,,,,,,,,,,,,,,,,,,,,,,,,,,
3172310939,17503101,Anita,Melkjorsen,50183183,Rhee,Cano,50183183,Rhee,Cano,10250853303,,AMERITAS,PrimeStar® Total,200,,dvh,2022-06-13,,2022-07-01,,,,,,,
,,,,,,,,,,,,,,,,,,,,,,,,,,
3172447151,4214551,Georgia,Miller,50183183,Rhee,Cano,50183183,Rhee,Cano,250641329,,AMERITAS,,200,,dvh,2021-09-13,2021-09-13,2021-12-01,,,,,,,
,,,,,,,,,,,,,,,,,,,,,,,,,,
3172361605,16601,Judi,Moore,50183183,Rhee,Cano,50183183,Rhee,Cano,250326367,,AMERITAS,,200,,dvh,2020-08-25,,2020-12-01,,,,,,,
,,,,,,,,,,,,,,,,,,,,,,,,,,
3172310707,1072701,William,Moran,50183183,Rhee,Cano,50183183,Rhee,Cano,CLI6680420,,AETNA,Advantage Plus 1000 (Non-Network),200,,dvh,2021-07-12,,2021-10-01,,,,,,,
,,,,,,,,,,,,,,,,,,,,,,,,,,
3172231050,229901,James,Moulden JR,50183183,Rhee,Cano,50183183,Rhee,Cano,10250373088,,AMERITAS,Advantage Plus 2000 (Non-Network),200,,dvh,2020-11-04,,2020-11-05,,,,,,,
,,,,,,,,,,,,,,,,,,,,,,,,,,
3172133430,1877251,Christine,Mounts,50183183,Rhee,Cano,50183183,Rhee,Cano,CLI6651562,,AETNA,Advantage Plus 1000 (Non-Network),200,,dvh,2021-05-13,,2021-08-01,,,,,,,
,,,,,,,,,,,,,,,,,,,,,,,,,,
3172133451,2186401,Alma,Newberry,50183183,Rhee,Cano,50183183,Rhee,Cano,25064788,,AMERITAS,,200,,dvh,2021-07-23,,2021-09-01,,,,,,,
,,,,,,,,,,,,,,,,,,,,,,,,,,
3661110030,19006251,Linda,Polancih,50183183,Rhee,Cano,50183183,Rhee,Cano,Pending Member ID,,AMERITAS,PrimeStar® Access,200,,dvh,2022-11-03,2022-11-02,2023-02-01,,,,,,,False
,,,,,,,,,,,,,,,,,,,,,,,,,,
3172392072,11664301,Tanya,Price,50183183,Rhee,Cano,50183183,Rhee,Cano,10250921108,,AMERITAS,PrimeStar® Total,200,,dvh,2022-10-03,2022-10-01,2023-01-01,,,,,,,
,,,,,,,,,,,,,,,,,,,,,,,,,,
3172310656,3816451,Gary,Repinski,50183183,Rhee,Cano,50183183,Rhee,Cano,10250778430,,AMERITAS,,200,,dvh,2022-02-18,2022-03-01,2022-05-01,,,,,,,
,,,,,,,,,,,,,,,,,,,,,,,,,,
3172252252,9883751,Donna,Romanowski,50183183,Rhee,Cano,50183183,Rhee,Cano,10250847472,,AMERITAS,PrimeStar® Total,200,,dvh,2022-06-02,2022-06-01,2022-08-01,,,,,,,
,,,,,,,,,,,,,,,,,,,,,,,,,,
3172322398,9056801,Deniece,Ross,50183183,Rhee,Cano,50183183,Rhee,Cano,250713801,,AMERITAS,PrimeStar® Access,200,,dvh,2021-12-03,,2022-01-01,,,,,,,
,,,,,,,,,,,,,,,,,,,,,,,,,,
3172133488,1778551,Alan,Rossi,50183183,Rhee,Cano,50183183,Rhee,Cano,CLI6640049,,AETNA,Advantage Plus 1000 (Non-Network),200,,dvh,2021-04-21,,2021-07-01,,,,,,,
,,,,,,,,,,,,,,,,,,,,,,,,,,
3172310835,701151,Robert,Steigerwald,50183183,Rhee,Cano,50183183,Rhee,Cano,00250463592,,AMERITAS,Advantage Plus 1000 (Non-Network),200,,dvh,2021-02-05,,2021-03-01,,,,,,,
,,,,,,,,,,,,,,,,,,,,,,,,,,
3172287772,12267351,Deborah,Stoffel,50183183,Rhee,Cano,50183183,Rhee,Cano,10250795346,,AMERITAS,PrimeStar® Total,200,,dvh,2022-03-15,2022-03-15,2022-06-01,,,,,,,
,,,,,,,,,,,,,,,,,,,,,,,,,,
3172391745,1226951,TED,TAYLOR,50183183,Rhee,Cano,50183183,Rhee,Cano,CLI6709785,,AETNA,,200,,dvh,2021-09-09,,2021-12-01,,,,,,,
,,,,,,,,,,,,,,,,,,,,,,,,,,
3172288034,19844451,Victoria,Trager,50183183,Rhee,Cano,50183183,Rhee,Cano,10250880027,,AMERITAS,PrimeStar® Total,200,,dvh,2022-07-28,2022-07-28,2022-08-01,,,,,,,
,,,,,,,,,,,,,,,,,,,,,,,,,,
3172404380,16119501,Kenneth,Trapp,50183183,Rhee,Cano,50183183,Rhee,Cano,10250851829,,AMERITAS,PrimeStar® Total,200,,dvh,2022-06-10,2022-06-09,2022-08-01,,,,,,,
,,,,,,,,,,,,,,,,,,,,,,,,,,
3172231178,10580901,Mark,Votaw,50183183,Rhee,Cano,50183183,Rhee,Cano,00250797781,,AMERITAS,PrimeStar® Total,200,,dvh,2022-03-18,,2022-04-01,,,,,,,
,,,,,,,,,,,,,,,,,,,,,,,,,,
3172362036,13046201,Anjunis,Walls,50183183,Rhee,Cano,50183183,Rhee,Cano,10250911295,,AMERITAS,PrimeStar® Total,500,,dvh,2022-09-16,2022-09-15,2022-11-01,2022-11-08,2022-10-31,,,,,
,,,,,,,,,,,,,,,,,,,,,,,,,,
3172133415,2072651,Barbara,Woodson,50183183,Rhee,Cano,50183183,Rhee,Cano,CLI6649571,,AETNA,Advantage Plus 2000 (Non-Network),200,,dvh,2021-05-10,,2021-08-01,,,,,,,
,,,,,,,,,,,,,,,,,,,,,,,,,,
3625043549,5187701,Michael,Wright,50183183,Rhee,Cano,50183183,Rhee,Cano,Pending Member ID,,AMERITAS,PrimeStar® Total,200,,dvh,2022-10-31,2022-10-31,2022-12-01,,,,,,,False
,,,,,,,,,,,,,,,,,,,,,,,,,,
