id,originally_associated_contact_id,firstname,lastname,agent_originating,agent_firstname,agent_lastname,hubspot_owner_id,hs_owner_firstname,hs_owner_lastname,policy_number,commission_id,carrier,plan_name,status,gi___not_commissionable,plan_type,date_actual_submission,date_requested_submission,date_effective,date_cancel_notification,date_cancel_actual,notes_misc_cancel,first_date_effective,active_policy,residual,grey
3172297314,18613501,Rita,Addinall,165338461,Stephanie,Kiely,165338461,Stephanie,Kiely,10250866070,,AMERITAS,PrimeStar® Total,200,,dvh,2022-07-05,2022-07-05,2022-07-06,,,,,,,
,,,,,,,,,,,,,,,,,,,,,,,,,,
3172404284,22606451,Thomas,Albert Beck,165338461,Stephanie,Kiely,165338461,Stephanie,Kiely,10250916369,,AMERITAS,PrimeStar® Total,200,,dvh,2022-09-26,2022-09-26,2022-10-01,,,,,,,
,,,,,,,,,,,,,,,,,,,,,,,,,,
3172252447,21476801,Kenneth,Allred,165338461,Stephanie,Kiely,165338461,Stephanie,Kiely,10250902505,,AMERITAS,PrimeStar® Total,200,,dvh,2022-08-31,2022-08-31,2022-09-01,,,,,,,
,,,,,,,,,,,,,,,,,,,,,,,,,,
3172404358,22745501,Emma,Ball,165338461,Stephanie,Kiely,165338461,Stephanie,Kiely,10250919442,,AMERITAS,PrimeStar® Total,200,,dvh,2022-09-30,2022-09-29,2022-10-01,,,,,,,
,,,,,,,,,,,,,,,,,,,,,,,,,,
3222828881,20661201,Paula,Barnhart,165338461,Stephanie,Kiely,165338461,Stephanie,Kiely,Pending Member ID,,AMERITAS,ProtectorPlus Dental Network w Hearing,200,,dvh,2022-10-13,2022-10-12,2023-01-01,,,,,,,False
,,,,,,,,,,,,,,,,,,,,,,,,,,
3172252436,21467051,Phillip,Bowser,165338461,Stephanie,Kiely,165338461,Stephanie,Kiely,10250901788,,AMERITAS,PrimeStar® Total,500,,dvh,2022-08-31,2022-08-30,2022-09-01,,2022-11-30,,,,,
,,,,,,,,,,,,,,,,,,,,,,,,,,
3172322155,14261801,Jeffrey,Chandler,165338461,Stephanie,Kiely,165338461,Stephanie,Kiely,10250826455,,AMERITAS,PrimeStar® Total,200,,dvh,2022-04-28,2022-04-28,2022-04-29,,,,,,,
,,,,,,,,,,,,,,,,,,,,,,,,,,
3172133425,1782001,Karen,Charleston,49712324,David,Strehlow,165338461,Stephanie,Kiely,250556650,,AMERITAS,,200,,dvh,2021-05-26,,2021-08-01,,,,,,,
,,,,,,,,,,,,,,,,,,,,,,,,,,
3172219284,20736701,Dianne,Coughlin,165338461,Stephanie,Kiely,165338461,Stephanie,Kiely,10250891467,,AMERITAS,PrimeStar® Total,200,,dvh,2022-08-16,2022-08-15,2022-10-01,,,,,,,
,,,,,,,,,,,,,,,,,,,,,,,,,,
3172310941,18377801,Jane,D'Angelo,165338461,Stephanie,Kiely,165338461,Stephanie,Kiely,10250863161,,AMERITAS,PrimeStar® Total,200,,dvh,2022-06-29,2022-06-29,2022-08-01,,,,,,,
,,,,,,,,,,,,,,,,,,,,,,,,,,
3172219039,15274701,Mark,Davidson,165338461,Stephanie,Kiely,165338461,Stephanie,Kiely,10250841678,,AMERITAS,PrimeStar® Total,200,,dvh,2022-05-24,2022-05-24,2022-08-01,,,,,,,
,,,,,,,,,,,,,,,,,,,,,,,,,,
3172252486,21297451,Cathy,Dennis,165338461,Stephanie,Kiely,165338461,Stephanie,Kiely,1050915559,,AMERITAS,PrimeStar® Total,200,,dvh,2022-09-23,2022-09-22,2022-12-01,,,,,,,
,,,,,,,,,,,,,,,,,,,,,,,,,,
3172287880,19859101,Kay,Detter,165338461,Stephanie,Kiely,165338461,Stephanie,Kiely,10250922478,,AMERITAS,PrimeStar® Total,200,,dvh,2022-10-05,2022-10-05,2023-01-01,,,,,,,
,,,,,,,,,,,,,,,,,,,,,,,,,,
3172219268,20942751,James,Dozet,165338461,Stephanie,Kiely,165338461,Stephanie,Kiely,10250921652,,AMERITAS,PrimeStar® Total,200,,dvh,2022-10-04,2022-10-03,2022-12-01,,,,,,,
,,,,,,,,,,,,,,,,,,,,,,,,,,
3172288001,19441401,Donna,Dozet,165338461,Stephanie,Kiely,165338461,Stephanie,Kiely,10250921177,,AMERITAS,PrimeStar® Total,200,,dvh,2022-10-03,2022-10-03,2022-12-01,,,,,,,
,,,,,,,,,,,,,,,,,,,,,,,,,,
3172288026,19680151,Mary,Emery,165338461,Stephanie,Kiely,165338461,Stephanie,Kiely,10250884463,,AMERITAS,PrimeStar® Total,200,,dvh,2022-08-04,2022-08-01,2022-11-01,,,,,,,
,,,,,,,,,,,,,,,,,,,,,,,,,,
3172252326,21688901,Roberta,English,165338461,Stephanie,Kiely,165338461,Stephanie,Kiely,10250907316,,AMERITAS,PrimeStar® Total,200,,dvh,2022-09-09,2022-09-09,2022-10-01,,,,,,,
,,,,,,,,,,,,,,,,,,,,,,,,,,
3172310951,18411801,Deborah,Falkoff,165338461,Stephanie,Kiely,165338461,Stephanie,Kiely,10250877207,,AMERITAS,PrimeStar® Total,200,,dvh,2022-07-25,2022-07-22,2022-08-01,,,,,,,
,,,,,,,,,,,,,,,,,,,,,,,,,,
3658270514,13533951,Mark,Feinberg,165338461,Stephanie,Kiely,165338461,Stephanie,Kiely,Pending Member ID,,AMERITAS,PrimeStar® Total,200,,dvh,2022-11-02,2022-11-02,2022-11-03,,,,,,,False
,,,,,,,,,,,,,,,,,,,,,,,,,,
3172288039,19445301,Kevin,Ferguson,165338461,Stephanie,Kiely,165338461,Stephanie,Kiely,10250875240,,AMERITAS,PrimeStar® Total,200,,dvh,2022-07-20,2022-07-20,2022-08-01,,,,,,,
,,,,,,,,,,,,,,,,,,,,,,,,,,
3172310930,17711901,Vicky,Ferguson,165338461,Stephanie,Kiely,165338461,Stephanie,Kiely,10250874861,,AMERITAS,PrimeStar® Total,200,,dvh,2022-07-20,2022-07-20,2022-08-01,,,,,,,
,,,,,,,,,,,,,,,,,,,,,,,,,,
3172219188,14822401,Janice,Ferry,165338461,Stephanie,Kiely,165338461,Stephanie,Kiely,NA,,AMERITAS,,200,,dvh,2022-05-09,2022-05-06,2022-06-01,,,,,,,False
,,,,,,,,,,,,,,,,,,,,,,,,,,
3205341621,22362451,David,Fleser,165338461,Stephanie,Kiely,165338461,Stephanie,Kiely,Pending Member ID,,AMERITAS,PrimeStar® Access,120,,dvh,2022-10-11,2022-10-11,2022-11-01,,,,,,,
,,,,,,,,,,,,,,,,,,,,,,,,,,
3172219037,14876601,Patricia,Friedman,165338461,Stephanie,Kiely,165338461,Stephanie,Kiely,10250831389,,AMERITAS,PrimeStar® Access,200,,dvh,2022-05-06,2022-05-03,2022-08-01,,,,,,,
,,,,,,,,,,,,,,,,,,,,,,,,,,
3172404325,22716651,Mark,Gaskill,165338461,Stephanie,Kiely,165338461,Stephanie,Kiely,10250918298,,AMERITAS,PrimeStar® Total,200,,dvh,2022-09-28,2022-09-28,2022-10-01,,,,,,,
,,,,,,,,,,,,,,,,,,,,,,,,,,
3172361810,20430951,Diana,Gilbert,165338461,Stephanie,Kiely,165338461,Stephanie,Kiely,NA,,AMERITAS,Advantage Plus 2000 (Non-Network),200,,dvh,2022-10-13,2022-10-10,2023-01-01,,,,,,,False
,,,,,,,,,,,,,,,,,,,,,,,,,,
3172361849,20646501,James,Gilbert,165338461,Stephanie,Kiely,165338461,Stephanie,Kiely,NA,,AMERITAS,Advantage Plus Network 2000,200,,dvh,2022-10-17,2022-10-15,2023-01-01,,,,,,,False
,,,,,,,,,,,,,,,,,,,,,,,,,,
3172287928,19489551,Renita,Godeaux,165338461,Stephanie,Kiely,165338461,Stephanie,Kiely,10250878243,,AMERITAS,PrimeStar® Total,200,,dvh,2022-07-26,2022-07-20,2022-08-01,,,,,,,
,,,,,,,,,,,,,,,,,,,,,,,,,,
3172362003,13528651,Kathy,Grounds,165338461,Stephanie,Kiely,165338461,Stephanie,Kiely,10250834310,,AMERITAS,PrimeStar® Total,200,,dvh,2022-05-11,2022-05-12,2022-06-01,,,,,,,
,,,,,,,,,,,,,,,,,,,,,,,,,,
3172361858,20654201,John,Groves,165338461,Stephanie,Kiely,165338461,Stephanie,Kiely,10250908452,,AMERITAS,PrimeStar® Total,200,,dvh,2022-09-12,2022-09-01,2022-12-01,,,,,,,
,,,,,,,,,,,,,,,,,,,,,,,,,,
3774465076,24210501,Daniel,Haley,165338461,Stephanie,Kiely,165338461,Stephanie,Kiely,Pending Member ID,,AMERITAS,,200,,dvh,2022-11-08,2022-11-08,2023-01-01,,,,,,,False
,,,,,,,,,,,,,,,,,,,,,,,,,,
3172287875,19238551,Edward,Hall,165338461,Stephanie,Kiely,165338461,Stephanie,Kiely,10250881077,,AMERITAS,PrimeStar® Total,200,,dvh,2022-07-29,2022-07-28,2022-08-01,,,,,,,
,,,,,,,,,,,,,,,,,,,,,,,,,,
3172219140,15220201,Lynnette,Hartle,165338461,Stephanie,Kiely,165338461,Stephanie,Kiely,10250831497,,AMERITAS,PrimeStar® Total,500,,dvh,2022-05-06,2022-05-05,2022-07-01,,2022-10-31,,,,,
,,,,,,,,,,,,,,,,,,,,,,,,,,
3172404307,22632601,Raymond,Heringer,165338461,Stephanie,Kiely,165338461,Stephanie,Kiely,10250919814,,AMERITAS,PrimeStar® Total,500,,dvh,2022-09-30,2022-09-30,2022-10-01,2022-10-16,2022-09-30,,,,,
,,,,,,,,,,,,,,,,,,,,,,,,,,
3172148774,4599701,Arleen,Hood,165338461,Stephanie,Kiely,165338461,Stephanie,Kiely,10250889489,,AMERITAS,PrimeStar® Total,200,,dvh,2022-05-31,2022-05-09,2022-06-01,,,,,,,
,,,,,,,,,,,,,,,,,,,,,,,,,,
3172361811,19902601,Lucille,Hubbard,165338461,Stephanie,Kiely,165338461,Stephanie,Kiely,10250881386,,AMERITAS,PrimeStar® Total,200,,dvh,2022-07-30,2022-07-29,2022-10-01,,,,,,,
,,,,,,,,,,,,,,,,,,,,,,,,,,
3172297279,18933051,Steve,Johnson,165338461,Stephanie,Kiely,165338461,Stephanie,Kiely,10250872151,,AMERITAS,PrimeStar® Total,200,,dvh,2022-07-15,2022-07-15,2022-08-01,,,,,,,
,,,,,,,,,,,,,,,,,,,,,,,,,,
3172362002,13519401,Gwen,Johnson,165338461,Stephanie,Kiely,165338461,Stephanie,Kiely,10250863540,,AMERITAS,PrimeStar® Total,200,,dvh,2022-06-29,2022-06-28,2022-07-01,,,,,,,
,,,,,,,,,,,,,,,,,,,,,,,,,,
3172322110,14487001,Tim,Jones,165338461,Stephanie,Kiely,165338461,Stephanie,Kiely,10250826453,,AMERITAS,PrimeStar® Total,200,,dvh,2022-04-28,2022-04-25,2022-04-29,,,,,,,
,,,,,,,,,,,,,,,,,,,,,,,,,,
3172404397,16150351,CarolAnn,Jordan,165338461,Stephanie,Kiely,165338461,Stephanie,Kiely,10250852753	,,AMERITAS,PrimeStar® Total,200,,dvh,2022-06-13,2022-06-03,2022-09-01,,,,,,,
,,,,,,,,,,,,,,,,,,,,,,,,,,
3172197735,6425801,Satish,Jumani,165338461,Stephanie,Kiely,165338461,Stephanie,Kiely,10250921754,,AMERITAS,PrimeStar® Total,200,,dvh,2022-10-04,2022-10-04,2023-01-01,,,,,,,
,,,,,,,,,,,,,,,,,,,,,,,,,,
3172219280,20743401,Inderjeet,Jumani,165338461,Stephanie,Kiely,165338461,Stephanie,Kiely,10250922362,,AMERITAS,PrimeStar® Total,200,,dvh,2022-10-05,2022-10-04,2023-01-01,,,,,,,
,,,,,,,,,,,,,,,,,,,,,,,,,,
3172404281,22868601,Stephen,Jury,165338461,Stephanie,Kiely,165338461,Stephanie,Kiely,10250921159,,AMERITAS,PrimeStar® Total,200,,dvh,2022-10-03,2022-10-03,2023-01-01,,,,,,,
,,,,,,,,,,,,,,,,,,,,,,,,,,
3172404497,17148451,Wendy,Karsten-Beck,165338461,Stephanie,Kiely,165338461,Stephanie,Kiely,10250868121,,AMERITAS,PrimeStar® Total,200,,dvh,2022-07-08,2022-07-08,2022-07-09,,,,,,,
,,,,,,,,,,,,,,,,,,,,,,,,,,
3172361781,19955051,Patricia,Key,165338461,Stephanie,Kiely,165338461,Stephanie,Kiely,NA,,AMERITAS,,200,,dvh,2022-08-04,2022-08-03,2022-09-01,,,,,,,False
,,,,,,,,,,,,,,,,,,,,,,,,,,
3172219232,21088751,Pamela,Little,165338461,Stephanie,Kiely,165338461,Stephanie,Kiely,10250910762,,AMERITAS,PrimeStar® Total,200,,dvh,2022-09-15,2022-09-14,2022-12-01,,,,,,,
,,,,,,,,,,,,,,,,,,,,,,,,,,
3172361803,20511401,Kathryn,Lloyd,165338461,Stephanie,Kiely,165338461,Stephanie,Kiely,10250904835,,AMERITAS,PrimeStar® Total,200,,dvh,2022-09-06,2022-09-01,2022-12-01,,,,,,,
,,,,,,,,,,,,,,,,,,,,,,,,,,
3172297242,19052551,Claire,Lomack-Phelps,165338461,Stephanie,Kiely,165338461,Stephanie,Kiely,847244608,,AMERITAS,PrimeStar® Total,200,,dvh,2022-10-10,2022-08-04,2022-08-14,,,,,,,
,,,,,,,,,,,,,,,,,,,,,,,,,,
3172404522,17375951,Charles,Longley,165338461,Stephanie,Kiely,165338461,Stephanie,Kiely,10250904812,,AMERITAS,PrimeStar® Total,200,,dvh,2022-09-06,2022-09-01,2022-12-01,,,,,,,
,,,,,,,,,,,,,,,,,,,,,,,,,,
3172404491,17175601,William,Lucas,165338461,Stephanie,Kiely,165338461,Stephanie,Kiely,10250852118 ,,AMERITAS,PrimeStar® Total,200,,dvh,2022-06-10,2022-06-10,2022-09-01,,,,,,,
,,,,,,,,,,,,,,,,,,,,,,,,,,
3172404531,17276701,Dennis,Martin,165338461,Stephanie,Kiely,165338461,Stephanie,Kiely,10250916746,,AMERITAS,PrimeStar® Total,200,,dvh,2022-09-26,2022-09-26,2022-10-01,,,,,,,
,,,,,,,,,,,,,,,,,,,,,,,,,,
3172219257,20904501,William,Maupin,165338461,Stephanie,Kiely,165338461,Stephanie,Kiely,10250894935,,AMERITAS,PrimeStar® Total,200,,dvh,2022-08-22,2022-08-18,2022-09-01,,,,,,,
,,,,,,,,,,,,,,,,,,,,,,,,,,
3172219276,20674601,Theresa,Maupin,165338461,Stephanie,Kiely,165338461,Stephanie,Kiely,10250894941,,AMERITAS,PrimeStar® Total,200,,dvh,2022-08-22,2022-08-18,2022-09-01,,,,,,,
,,,,,,,,,,,,,,,,,,,,,,,,,,
3172404367,16581951,Kevin,McCabe,165338461,Stephanie,Kiely,165338461,Stephanie,Kiely,10250888796,,AMERITAS,PrimeStar® Total,200,,dvh,2022-08-11,2022-08-02,2022-10-01,,,,,,,
,,,,,,,,,,,,,,,,,,,,,,,,,,
3172361770,20529701,Geoffrey,McKenzie,165338461,Stephanie,Kiely,165338461,Stephanie,Kiely,10250909126,,AMERITAS,PrimeStar® Total,200,,dvh,2022-09-13,2022-09-12,2022-10-01,,,,,,,
,,,,,,,,,,,,,,,,,,,,,,,,,,
3565456422,18494551,Patrick,McPhail,165338461,Stephanie,Kiely,165338461,Stephanie,Kiely,Pending Member ID,,AMERITAS,PrimeStar® Total,200,,dvh,2022-10-31,2022-10-28,2022-12-01,,,,,,,False
,,,,,,,,,,,,,,,,,,,,,,,,,,
3172219181,15954501,Sandra,Merritt,165338461,Stephanie,Kiely,165338461,Stephanie,Kiely,NA,,AMERITAS,,200,,dvh,2022-05-20,2022-05-23,2022-06-01,,,,,,,False
,,,,,,,,,,,,,,,,,,,,,,,,,,
3172310918,17587301,Susan,Mohr,165338461,Stephanie,Kiely,165338461,Stephanie,Kiely,10250858553,,AMERITAS,PrimeStar® Total,200,,dvh,2022-06-22,2022-06-20,2022-07-01,,,,,,,
,,,,,,,,,,,,,,,,,,,,,,,,,,
3172287914,19855451,Gary,Moriarty,165338461,Stephanie,Kiely,165338461,Stephanie,Kiely,10250881382,,AMERITAS,PrimeStar® Total,200,,dvh,2022-07-30,2022-07-29,2022-08-01,,,,,,,
,,,,,,,,,,,,,,,,,,,,,,,,,,
3172287827,12220801,Jeffery,Morse,165338461,Stephanie,Kiely,165338461,Stephanie,Kiely,10250863770,,AMERITAS,PrimeStar® Access,200,,dvh,2022-06-30,2022-06-30,2022-09-01,,,,,,,
,,,,,,,,,,,,,,,,,,,,,,,,,,
3271166993,23100501,Richard,Mount ,165338461,Stephanie,Kiely,165338461,Stephanie,Kiely,847247303,,AMERITAS,PrimeStar® Total,200,,dvh,2022-10-17,2022-10-14,2022-11-01,,,,,,,
,,,,,,,,,,,,,,,,,,,,,,,,,,
3172231219,10937651,Andria,Nicosia,165338461,Stephanie,Kiely,165338461,Stephanie,Kiely,10250859759,,AMERITAS,PrimeStar® Access,200,,dvh,2022-06-23,2022-06-23,2022-08-01,,,,,,,
,,,,,,,,,,,,,,,,,,,,,,,,,,
3172404493,16732251,Cheryl,Pappa,165338461,Stephanie,Kiely,165338461,Stephanie,Kiely,10250849411,,AMERITAS,PrimeStar® Total,200,,dvh,2022-06-07,2022-06-03,2022-06-08,,,,,,,
,,,,,,,,,,,,,,,,,,,,,,,,,,
3172287882,19501551,Luis,Peralta,165338461,Stephanie,Kiely,165338461,Stephanie,Kiely,10250877531,,AMERITAS,PrimeStar® Total,200,,dvh,2022-07-25,2022-07-25,2022-08-01,,,,,,,
,,,,,,,,,,,,,,,,,,,,,,,,,,
3172252459,21475701,Branda,Reed,165338461,Stephanie,Kiely,165338461,Stephanie,Kiely,10250913852,,AMERITAS,PrimeStar® Total,200,,dvh,2022-09-21,2022-09-01,2022-10-01,,,,,,,
,,,,,,,,,,,,,,,,,,,,,,,,,,
3777063547,23825001,Debra,Ridley,165338461,Stephanie,Kiely,165338461,Stephanie,Kiely,Pending Member ID,,AMERITAS,PrimeStar® Total,200,,dvh,2022-11-09,2022-11-08,2023-01-01,,,,,,,False
,,,,,,,,,,,,,,,,,,,,,,,,,,
3172219231,20741051,Constantin,Rieger,165338461,Stephanie,Kiely,165338461,Stephanie,Kiely,NA,,AMERITAS,PrimeStar® Total,200,,dvh,2022-10-10,2022-10-07,2023-01-01,,,,,,,False
,,,,,,,,,,,,,,,,,,,,,,,,,,
3172404529,17046251,Anna,Ringwald,165338461,Stephanie,Kiely,165338461,Stephanie,Kiely,10250851114,,AMERITAS,PrimeStar® Total,200,,dvh,2022-06-09,2022-06-09,2022-07-01,,,,,,,
,,,,,,,,,,,,,,,,,,,,,,,,,,
3172252464,21896401,Jean,Roberts,165338461,Stephanie,Kiely,165338461,Stephanie,Kiely,10250917300,,AMERITAS,PrimeStar® Total,200,,dvh,2022-09-27,2022-09-26,2022-10-01,,,,,,,
,,,,,,,,,,,,,,,,,,,,,,,,,,
3657745161,22336651,Richard,Schwartz,165338461,Stephanie,Kiely,165338461,Stephanie,Kiely,Pending Member ID,,AMERITAS,PrimeStar® Total,200,,dvh,2022-11-03,2022-11-02,2022-11-03,,,,,,,False
,,,,,,,,,,,,,,,,,,,,,,,,,,
3172297287,18996201,Patricia,Sharron,165338461,Stephanie,Kiely,165338461,Stephanie,Kiely,10250880018,,AMERITAS,ProtectorPlus Dental Network w Hearing,200,,dvh,2022-07-28,2022-07-27,2022-10-01,,,,,,,
,,,,,,,,,,,,,,,,,,,,,,,,,,
3172310936,18245301,Nadine,Sills,165338461,Stephanie,Kiely,165338461,Stephanie,Kiely,10250878120,,AMERITAS,PrimeStar® Total,200,,dvh,2022-07-26,2022-07-25,2022-08-01,,,,,,,
,,,,,,,,,,,,,,,,,,,,,,,,,,
3172287895,19371601,Sherry,Simonson,165338461,Stephanie,Kiely,165338461,Stephanie,Kiely,10250895025,,AMERITAS,PrimeStar® Total,200,,dvh,2022-08-22,2022-08-20,2022-09-01,,,,,,,
,,,,,,,,,,,,,,,,,,,,,,,,,,
3547576195,23672001,Daniel,Stacey,165338461,Stephanie,Kiely,165338461,Stephanie,Kiely,Pending Member ID,,AMERITAS,PrimeStar® Total,200,,dvh,2022-10-28,2022-10-27,2022-11-01,,,,,,,False
,,,,,,,,,,,,,,,,,,,,,,,,,,
3172197738,6937151,Melissa,Stark,165338461,Stephanie,Kiely,165338461,Stephanie,Kiely,10250819942,,AMERITAS,PrimeStar® Total,200,,dvh,2022-04-20,2022-04-19,2022-07-01,,,,,,,
,,,,,,,,,,,,,,,,,,,,,,,,,,
3172322154,14340251,Michelle,Stewart,165338461,Stephanie,Kiely,165338461,Stephanie,Kiely,10250847475,,AMERITAS,PrimeStar® Total,200,,dvh,2022-06-02,2022-06-01,2022-09-01,,,,,,,
,,,,,,,,,,,,,,,,,,,,,,,,,,
3172297244,19191251,Stuart,Stong,165338461,Stephanie,Kiely,165338461,Stephanie,Kiely,10250874333,,AMERITAS,PrimeStar® Total,200,,dvh,2022-07-19,2022-07-19,2022-10-01,,,,,,,
,,,,,,,,,,,,,,,,,,,,,,,,,,
3172404520,16977451,Mary Lea,Tucker,165338461,Stephanie,Kiely,165338461,Stephanie,Kiely,10250854131,,AMERITAS,PrimeStar® Access,200,,dvh,2022-06-14,2022-06-14,2022-07-01,,,,,,,
,,,,,,,,,,,,,,,,,,,,,,,,,,
3172287906,19744051,Teofila,Ventura,165338461,Stephanie,Kiely,165338461,Stephanie,Kiely,10250878081,,AMERITAS,PrimeStar® Total,200,,dvh,2022-07-26,2022-07-25,2022-08-01,,,,,,,
,,,,,,,,,,,,,,,,,,,,,,,,,,
3172219256,21201051,Vanessa,Vlay,165338461,Stephanie,Kiely,165338461,Stephanie,Kiely,10250900100,,AMERITAS,PrimeStar® Total,200,,dvh,2022-08-29,2022-08-29,2022-09-01,,,,,,,
,,,,,,,,,,,,,,,,,,,,,,,,,,
3172287891,19593001,Jane,Wallace,165338461,Stephanie,Kiely,165338461,Stephanie,Kiely,10250877191,,AMERITAS,PrimeStar® Total,200,,dvh,2022-07-25,2022-07-22,2022-08-01,,,,,,,
,,,,,,,,,,,,,,,,,,,,,,,,,,
3172297330,18486401,Kevin,Wallace,165338461,Stephanie,Kiely,165338461,Stephanie,Kiely,10250877637,,AMERITAS,PrimeStar® Total,200,,dvh,2022-07-25,2022-07-22,2022-08-01,,,,,,,
,,,,,,,,,,,,,,,,,,,,,,,,,,
3172361863,20369351,Mark,Willis,165338461,Stephanie,Kiely,165338461,Stephanie,Kiely,10250891351,,AMERITAS,PrimeStar® Total,200,,dvh,2022-08-16,2022-08-08,2022-09-01,,,,,,,
,,,,,,,,,,,,,,,,,,,,,,,,,,
